-0.351,1.119,28.256,-1.338,1.45,19.55,-7.471,-3.45,19.25,-4.349,-5.25,10.35,-0.892,-9.25,2.15,4.795,6.35,19.85,6.467,7.65,9.05,7.805,4.55,-1.05,-3.791,-3.15,0.05,-5.91,-2.05,-13.05,-7.805,0.45,-22.65,3.791,3.15,-0.05,1.896,5.05,-12.65,-0.781,6.85,-25.15
-19.819,3.258,20.807,-5.232,0.911,18.918,-4.188,-6.873,19.068,5.119,-8.572,17.43,14.804,-8.572,18.612,-12.925,2.504,18.918,-12.925,7.831,10.929,-12.925,4.458,20.084,-2.426,-4.287,0.186,-1.279,-4.081,-13.078,-2.136,-3.028,-23.086,2.426,4.287,-0.186,-0.452,4.184,-13.187,-1.065,2.427,-23.114
-1.146,1.494,27.28,0.38,3.46,19.339,-7.126,1.264,20.071,-8.848,-7.855,17.603,-9.673,-17.576,17.603,8.094,4.902,18.978,9.13,-4.562,17.733,9.943,-14.283,17.935,-4.601,-1.768,0.0,-4.768,-0.832,-13.282,-3.847,-1.114,-23.335,4.601,1.768,0.0,4.033,1.221,-13.292,2.801,1.872,-23.295
-0.956,0.742,28.028,-1.583,1.654,19.515,-7.499,-3.504,19.225,-4.597,-5.468,10.286,-0.769,-10.015,2.549,4.291,6.867,19.711,5.836,8.095,10.314,7.15,4.919,1.183,-3.577,-3.39,0.099,-6.029,-2.083,-12.924,-8.055,0.567,-22.456,3.577,3.39,-0.099,1.399,5.64,-13.041,-0.573,7.23,-22.818
-0.84,0.719,28.121,-1.438,1.577,19.533,-7.39,-3.546,19.341,-4.372,-5.524,10.443,-0.285,-10.129,2.874,4.42,6.802,19.827,5.985,8.053,10.436,7.281,4.905,1.293,-3.594,-3.373,0.049,-5.768,-1.984,-13.014,-7.919,0.582,-22.543,3.594,3.373,-0.049,1.72,5.447,-13.068,-0.405,7.032,-22.814
-0.998,0.589,27.997,-1.624,1.58,19.518,-7.603,-3.512,19.327,-4.542,-5.275,10.399,-0.128,-10.233,3.249,4.208,6.839,19.708,5.696,7.901,10.282,7.006,4.753,1.14,-3.637,-3.326,0.097,-5.961,-2.142,-12.961,-7.979,0.482,-22.502,3.637,3.326,-0.097,1.577,5.331,-13.099,-0.636,6.901,-22.827
-1.055,0.629,27.971,-1.61,1.684,19.511,-7.523,-3.484,19.321,-4.603,-5.132,10.323,0.029,-10.511,3.63,4.308,6.841,19.801,5.773,7.989,10.381,7.092,4.902,1.22,-3.628,-3.337,0.049,-5.973,-2.135,-13.004,-7.868,0.597,-22.54,3.628,3.337,-0.049,1.265,5.302,-13.005,-0.596,6.872,-22.807
-1.124,0.563,27.984,-1.714,1.571,19.511,-7.63,-3.594,19.318,-4.919,-5.253,10.257,0.107,-10.922,4.109,4.148,6.791,19.799,5.612,7.939,10.379,6.913,4.79,1.236,-3.625,-3.339,0.097,-5.841,-2.037,-12.968,-8.086,0.498,-22.483,3.625,3.339,-0.097,1.251,5.433,-13.031,-0.706,6.931,-22.826
-0.953,0.62,27.907,-1.708,1.617,19.508,-7.677,-3.482,19.215,-4.791,-5.218,10.224,0.43,-11.356,4.723,4.159,6.833,19.796,5.719,7.978,10.391,7.026,4.918,1.219,-3.654,-3.307,0.098,-6.3,-2.013,-12.888,-8.021,0.575,-22.497,3.654,3.307,-0.098,1.53,5.616,-13.039,-0.593,7.108,-22.799
-1.404,0.381,27.845,-1.888,1.632,19.49,-7.801,-3.531,19.2,-5.174,-5.321,10.139,0.35,-11.646,5.172,4.029,6.795,19.684,5.506,7.953,10.267,6.822,4.866,1.106,-3.624,-3.335,0.198,-6.232,-2.165,-12.808,-8.242,0.358,-22.378,3.624,3.335,-0.198,1.135,5.426,-13.11,-0.886,6.991,-22.881
-1.224,0.509,27.864,-1.716,1.741,19.497,-7.666,-3.38,19.209,-5.047,-5.17,10.146,0.72,-11.745,5.822,4.19,6.913,19.788,5.729,8.048,10.378,6.942,4.957,1.204,-3.643,-3.314,0.196,-5.852,-2.012,-12.87,-8.008,0.431,-22.43,3.643,3.314,-0.196,1.374,5.429,-13.146,-0.688,7.048,-22.899
-1.238,0.291,27.937,-1.708,1.521,19.516,-7.656,-3.602,19.222,-5.293,-5.599,10.132,0.885,-12.214,6.491,4.192,6.705,19.71,5.752,7.956,10.319,6.95,4.891,1.134,-3.589,-3.376,0.15,-5.863,-2.094,-12.907,-8.079,0.315,-22.462,3.589,3.376,-0.15,1.324,5.376,-13.118,-0.642,6.908,-22.906
-1.155,0.338,27.994,-1.544,1.572,19.525,-7.547,-3.487,19.235,-5.039,-5.391,10.164,1.348,-12.179,7.281,4.362,6.744,19.816,5.913,7.983,10.422,7.026,4.888,1.236,-3.594,-3.372,0.098,-5.927,-2.062,-12.946,-8.019,0.432,-22.507,3.594,3.372,-0.098,1.472,5.343,-13.095,-0.624,6.905,-22.851
-1.127,0.235,27.959,-1.497,1.573,19.529,-7.46,-3.533,19.242,-4.73,-5.424,10.233,1.913,-12.235,8.071,4.519,6.615,19.819,6.064,7.844,10.422,7.183,4.749,1.237,-3.577,-3.39,0.099,-5.595,-2.075,-12.997,-7.782,0.39,-22.544,3.577,3.39,-0.099,1.661,5.382,-13.125,-0.349,6.935,-22.9
-0.899,0.36,27.976,-1.343,1.636,19.535,-7.359,-3.407,19.251,-4.592,-5.317,10.257,2.162,-12.206,8.81,4.585,6.782,19.825,6.259,8.03,10.452,7.368,4.874,1.287,-3.635,-3.327,0.099,-5.987,-2.018,-12.942,-7.757,0.468,-22.57,3.635,3.327,-0.099,1.863,5.516,-13.113,-0.267,7.008,-22.872
-1.018,0.224,27.877,-1.453,1.639,19.527,-7.461,-3.414,19.243,-4.736,-5.411,10.255,2.209,-12.23,9.58,4.467,6.795,19.817,6.027,7.941,10.412,7.236,4.877,1.228,-3.629,-3.333,0.148,-5.712,-2.154,-12.951,-7.833,0.363,-22.499,3.629,3.333,-0.148,1.629,5.404,-13.149,-0.396,6.968,-22.919
-0.945,0.163,27.85,-1.394,1.635,19.531,-7.359,-3.468,19.244,-4.699,-5.276,10.197,2.263,-12.111,10.197,4.575,6.727,19.921,6.027,7.957,10.51,7.334,4.898,1.338,-3.655,-3.306,0.098,-5.55,-1.999,-13.017,-7.764,0.387,-22.578,3.655,3.306,-0.098,1.9,5.366,-13.136,-0.253,6.962,-22.873
-0.39,0.391,27.789,-1.491,1.472,19.537,-7.803,-3.198,19.269,-4.697,-4.834,10.332,2.557,-11.318,11.053,4.693,6.308,19.809,6.406,7.625,10.454,7.757,4.451,1.327,-3.778,-3.165,0.092,-15.471,-2.496,-6.243,-15.471,-0.109,-16.056,3.778,3.165,-0.092,1.985,5.302,-13.112,-0.424,6.736,-22.815
-0.76,0.2,27.953,-1.345,1.477,19.548,-7.358,-3.57,19.264,-4.605,-5.137,10.199,2.327,-11.845,11.666,4.622,6.572,19.93,6.073,7.895,10.531,7.29,4.715,1.388,-3.655,-3.304,0.145,-5.539,-2.007,-12.973,-7.538,0.492,-22.552,3.655,3.304,-0.145,1.91,5.348,-13.186,-0.166,6.865,-22.953
-0.867,0.204,27.929,-1.456,1.48,19.539,-7.416,-3.629,19.252,-4.689,-4.963,10.143,1.926,-11.764,12.416,4.457,6.637,19.926,6.106,7.968,10.561,7.324,4.877,1.387,-3.601,-3.365,0.098,-5.585,-1.962,-12.994,-7.822,0.343,-22.569,3.601,3.365,-0.098,1.851,5.536,-13.118,-0.222,6.971,-22.899
-0.858,0.089,27.903,-1.46,1.422,19.543,-7.441,-3.663,19.251,-4.828,-4.879,10.092,1.634,-11.594,12.981,4.512,6.51,19.925,6.061,7.831,10.541,7.188,4.827,1.328,-3.636,-3.325,0.148,-5.831,-1.936,-12.912,-7.755,0.384,-22.551,3.636,3.325,-0.148,1.876,5.497,-13.167,-0.22,7.025,-22.928
-0.797,0.145,27.9,-1.406,1.476,19.543,-7.381,-3.609,19.162,-4.597,-4.624,10.029,1.572,-11.343,13.493,4.476,6.675,19.83,6.057,7.926,10.442,7.276,4.952,1.23,-3.637,-3.324,0.145,-5.647,-1.804,-12.93,-7.747,0.565,-22.52,3.637,3.324,-0.145,1.629,5.507,-13.127,-0.273,7.017,-22.93
-0.753,-0.035,27.912,-1.402,1.313,19.555,-7.323,-3.835,19.169,-4.814,-4.836,9.955,1.191,-11.34,14.057,4.471,6.522,19.842,6.045,7.867,10.466,7.267,4.776,1.293,-3.657,-3.301,0.147,-5.636,-2.015,-12.958,-7.661,0.404,-22.553,3.657,3.301,-0.147,1.915,5.456,-13.171,-0.165,6.89,-22.949
-0.751,0.096,27.871,-1.452,1.411,19.545,-7.382,-3.726,19.16,-4.864,-4.727,9.948,0.9,-10.984,14.724,4.483,6.55,19.834,6.046,7.976,10.468,7.373,4.889,1.308,-3.689,-3.268,0.097,-5.813,-1.965,-12.984,-7.82,0.534,-22.561,3.689,3.268,-0.097,1.766,5.488,-13.085,-0.303,6.994,-22.855
-0.649,0.015,27.903,-1.246,1.426,19.558,-7.231,-3.647,19.177,-4.705,-4.648,9.968,0.971,-10.613,15.202,4.647,6.606,19.946,6.216,8.031,10.581,7.547,4.946,1.422,-3.694,-3.262,0.097,-5.778,-1.881,-12.982,-7.616,0.571,-22.606,3.694,3.262,-0.097,1.795,5.447,-13.094,-0.21,7.048,-22.862
-0.659,-0.012,27.868,-1.35,1.371,19.555,-7.317,-3.723,19.173,-4.832,-4.714,9.951,0.683,-10.478,15.568,4.576,6.521,19.845,6.162,7.973,10.486,7.373,4.909,1.303,-3.709,-3.245,0.098,-5.376,-1.945,-13.049,-7.722,0.457,-22.574,3.709,3.245,-0.098,1.826,5.542,-13.078,-0.221,7.037,-22.854
-0.705,0.027,27.907,-1.413,1.323,19.554,-7.426,-3.719,19.176,-4.758,-4.693,10.003,0.389,-10.106,16.279,4.513,6.472,19.843,6.085,7.911,10.481,7.411,4.915,1.291,-3.707,-3.248,0.096,-5.807,-1.847,-12.978,-7.688,0.532,-22.612,3.707,3.248,-0.096,1.606,5.411,-13.066,-0.288,7.003,-22.858
-0.741,-0.014,27.791,-1.582,1.315,19.541,-7.613,-3.703,19.157,-5.041,-4.788,9.97,0.017,-9.882,16.578,4.454,6.335,19.83,6.031,7.868,10.483,7.336,4.835,1.302,-3.691,-3.265,0.097,-5.804,-1.971,-12.987,-7.814,0.527,-22.563,3.691,3.265,-0.097,1.615,5.505,-13.058,-0.319,7.038,-22.851
-0.848,0.007,27.782,-1.557,1.425,19.536,-7.501,-3.703,19.247,-4.965,-4.789,10.05,-0.065,-9.48,17.063,4.385,6.549,19.92,5.943,7.895,10.541,7.24,4.834,1.369,-3.666,-3.294,0.098,-5.833,-1.799,-12.955,-7.843,0.517,-22.578,3.666,3.294,-0.098,1.75,5.628,-13.066,-0.227,7.065,-22.866
-0.602,0.046,27.696,-1.409,1.539,19.538,-7.421,-3.503,19.16,-4.764,-4.798,10.024,-0.251,-9.175,17.485,4.658,6.521,19.824,6.136,7.868,10.433,7.447,4.808,1.262,-3.707,-3.248,0.048,-5.716,-1.943,-13.05,-7.587,0.639,-22.634,3.707,3.248,-0.048,1.671,5.352,-13.038,-0.164,7.057,-22.822
-0.804,-0.016,27.846,-1.462,1.381,19.546,-7.553,-3.572,19.262,-4.919,-4.973,10.135,-0.773,-8.908,18.042,4.539,6.435,19.933,6.116,7.793,10.559,7.302,4.87,1.327,-3.698,-3.259,0.049,-5.557,-1.971,-13.073,-7.781,0.438,-22.626,3.698,3.259,-0.049,1.647,5.499,-13.014,-0.209,6.988,-22.829
-0.511,0.119,27.832,-1.281,1.481,19.551,-7.367,-3.478,19.267,-4.646,-5.084,10.2,-0.804,-8.61,18.445,4.715,6.54,19.939,6.194,7.9,10.549,7.474,4.981,1.328,-3.718,-3.235,0.097,-5.358,-1.944,-13.054,-7.567,0.67,-22.556,3.718,3.235,-0.097,1.785,5.586,-13.06,-0.081,7.086,-22.872
-0.668,-0.071,27.732,-1.442,1.422,19.545,-7.521,-3.54,19.165,-4.825,-5.027,10.07,-1.282,-8.387,18.516,4.603,6.424,19.936,6.142,7.944,10.581,7.33,4.906,1.386,-3.713,-3.242,0.048,-5.684,-1.839,-13.046,-7.751,0.633,-22.618,3.713,3.242,-0.048,1.714,5.329,-13.046,-0.235,6.928,-22.826
-0.598,-0.074,27.741,-1.511,1.312,19.547,-7.573,-3.676,19.261,-4.855,-5.163,10.172,-1.514,-8.17,18.831,4.543,6.295,20.024,6.085,7.709,10.653,7.397,4.738,1.452,-3.704,-3.252,0.048,-5.489,-1.835,-13.071,-7.699,0.652,-22.607,3.704,3.252,-0.048,1.675,5.469,-13.02,-0.32,7.09,-22.787
-0.638,-0.031,27.659,-1.625,1.366,19.534,-7.739,-3.552,19.15,-5.122,-5.146,10.05,-1.895,-7.917,18.831,4.53,6.232,19.915,5.991,7.754,10.547,7.294,4.809,1.337,-3.733,-3.218,0.048,-5.742,-1.913,-13.05,-7.806,0.634,-22.603,3.733,3.218,-0.048,1.617,5.398,-13.013,-0.408,7.123,-22.756
-0.821,-0.128,27.646,-1.618,1.424,19.531,-7.76,-3.465,19.244,-5.07,-5.26,10.203,-2.087,-7.69,19.169,4.48,6.362,19.917,6.027,7.789,10.548,7.234,4.814,1.335,-3.696,-3.261,0.097,-5.721,-1.796,-12.982,-7.777,0.565,-22.585,3.696,3.261,-0.097,1.405,5.511,-13.019,-0.381,7.095,-22.833
-0.824,0.002,27.664,-1.628,1.486,19.525,-7.723,-3.461,19.241,-4.998,-5.171,10.194,-2.002,-7.486,19.186,4.515,6.368,19.907,5.972,7.704,10.511,7.279,4.733,1.31,-3.724,-3.228,0.097,-5.708,-1.932,-13.006,-7.883,0.634,-22.529,3.724,3.228,-0.097,1.657,5.594,-13.037,-0.281,7.161,-22.824
-0.754,-0.045,27.689,-1.638,1.377,19.532,-7.793,-3.49,19.152,-4.927,-5.209,10.15,-1.875,-7.431,19.147,4.558,6.191,19.909,6.116,7.618,10.542,7.33,4.643,1.33,-3.733,-3.218,0.097,-5.495,-1.822,-13.028,-7.694,0.541,-22.598,3.733,3.218,-0.097,1.651,5.474,-13.054,-0.227,7.136,-22.837
-0.912,-0.124,27.611,-1.794,1.369,19.519,-7.903,-3.554,19.134,-5.244,-5.285,10.072,-2.206,-7.624,19.043,4.398,6.188,19.896,5.872,7.63,10.518,7.172,4.685,1.308,-3.753,-3.194,0.096,-5.742,-1.792,-12.995,-7.866,0.725,-22.543,3.753,3.194,-0.096,1.529,5.483,-13.024,-0.416,7.05,-22.81
-0.743,0.05,27.666,-1.685,1.424,19.525,-7.844,-3.444,19.24,-5.131,-5.136,10.186,-2.007,-7.441,19.136,4.511,6.238,19.901,6.069,7.664,10.535,7.284,4.69,1.323,-3.782,-3.16,0.097,-5.774,-1.758,-12.994,-7.795,0.765,-22.563,3.782,3.16,-0.097,1.461,5.537,-12.991,-0.35,7.132,-22.798
-0.786,0.001,27.551,-1.783,1.466,19.513,-7.938,-3.399,19.133,-5.099,-5.102,10.12,-1.961,-7.66,18.997,4.377,6.334,19.799,6.047,7.677,10.439,7.361,4.706,1.239,-3.756,-3.191,0.048,-5.764,-1.778,-13.039,-7.912,0.762,-22.575,3.756,3.191,-0.048,1.511,5.497,-12.969,-0.534,7.073,-22.733
-0.908,-0.005,27.589,-1.791,1.481,19.511,-7.934,-3.401,19.13,-5.203,-5.006,10.065,-1.848,-7.795,18.792,4.352,6.362,19.893,6.013,7.706,10.532,7.222,4.731,1.319,-3.701,-3.255,0.049,-5.791,-1.854,-13.027,-8.014,0.658,-22.553,3.701,3.255,-0.049,1.58,5.452,-13.01,-0.406,7.152,-22.765
-0.823,-0.11,27.586,-1.724,1.42,19.522,-7.863,-3.467,19.14,-5.063,-5.052,10.093,-1.629,-8.049,18.719,4.455,6.255,19.9,6.019,7.601,10.522,7.215,4.652,1.299,-3.696,-3.261,0.048,-5.691,-1.955,-13.052,-7.76,0.616,-22.597,3.696,3.261,-0.048,1.517,5.515,-12.99,-0.433,7.094,-22.773
-0.653,-0.265,27.545,-1.608,1.356,19.536,-7.751,-3.517,19.06,-4.883,-5.027,10.022,-1.302,-8.393,18.451,4.543,6.233,19.822,6.113,7.579,10.446,7.423,4.608,1.245,-3.728,-3.224,0.097,-6.037,-1.933,-12.953,-7.834,0.601,-22.563,3.728,3.224,-0.097,1.621,5.515,-13.044,-0.351,7.105,-22.821
-0.668,-0.149,27.686,-1.506,1.367,19.544,-7.69,-3.463,19.166,-4.854,-4.96,10.115,-1.205,-8.518,18.435,4.637,6.248,19.925,6.108,7.595,10.533,7.416,4.624,1.332,-3.725,-3.228,0.049,-5.492,-1.821,-13.074,-7.805,0.559,-22.613,3.725,3.228,-0.049,1.752,5.505,-13.019,-0.283,7.081,-22.785
-0.768,-0.157,27.663,-1.609,1.359,19.536,-7.74,-3.53,19.068,-4.871,-4.935,10.013,-0.977,-8.73,18.114,4.535,6.239,19.918,6.007,7.587,10.525,7.205,4.638,1.303,-3.726,-3.227,0.049,-5.711,-1.931,-13.054,-7.935,0.58,-22.581,3.726,3.227,-0.049,1.603,5.424,-13.009,-0.445,7.093,-22.757
-0.645,-0.158,27.69,-1.494,1.353,19.546,-7.678,-3.468,19.074,-4.809,-4.978,10.037,-0.802,-8.992,17.975,4.613,6.279,19.931,6.166,7.706,10.563,7.374,4.642,1.38,-3.729,-3.224,0.049,-5.948,-1.922,-13.016,-7.854,0.607,-22.607,3.729,3.224,-0.049,1.784,5.575,-13.01,-0.352,7.138,-22.757
-0.863,-0.154,27.57,-1.674,1.471,19.523,-7.772,-3.459,19.051,-4.865,-4.878,10.01,-0.709,-9.259,17.674,4.441,6.395,19.811,6.027,7.752,10.439,7.237,4.688,1.256,-3.707,-3.247,0.098,-6.273,-2.049,-12.913,-8.019,0.514,-22.525,3.707,3.247,-0.098,1.499,5.518,-13.031,-0.421,7.134,-22.814
-0.776,-0.123,27.762,-1.624,1.257,19.542,-7.772,-3.609,19.066,-4.889,-4.908,10.0,-0.61,-9.511,17.463,4.436,6.241,19.923,6.006,7.681,10.56,7.216,4.616,1.377,-3.731,-3.221,0.048,-5.628,-1.914,-13.066,-7.923,0.545,-22.59,3.731,3.221,-0.048,1.735,5.515,-13.012,-0.42,7.111,-22.749
-0.742,-0.089,27.716,-1.564,1.37,19.539,-7.607,-3.626,19.061,-4.913,-4.947,9.94,-0.348,-9.846,17.036,4.487,6.372,19.826,5.97,7.732,10.437,7.276,4.761,1.237,-3.699,-3.256,0.098,-5.771,-1.865,-12.982,-7.886,0.652,-22.531,3.699,3.256,-0.098,1.746,5.626,-13.055,-0.335,7.154,-22.819
-0.833,-0.01,27.738,-1.607,1.417,19.532,-7.695,-3.524,19.049,-4.98,-4.859,9.936,-0.169,-10.109,16.606,4.438,6.426,19.82,5.915,7.881,10.444,7.203,4.847,1.261,-3.644,-3.318,0.098,-5.94,-1.92,-12.943,-7.918,0.681,-22.5,3.644,3.318,-0.098,1.774,5.504,-13.1,-0.301,7.134,-22.848
-0.717,-0.011,27.71,-1.557,1.425,19.536,-7.551,-3.638,19.148,-4.97,-4.964,9.995,0.06,-10.423,16.326,4.484,6.437,19.823,5.961,7.797,10.434,7.259,4.737,1.261,-3.667,-3.293,0.098,-5.837,-1.904,-12.966,-7.837,0.62,-22.539,3.667,3.293,-0.098,1.747,5.519,-13.085,-0.256,7.146,-22.849
-0.542,-0.032,27.687,-1.515,1.371,19.543,-7.527,-3.664,19.061,-4.785,-4.779,9.927,0.467,-10.618,15.715,4.501,6.407,19.928,6.071,7.846,10.566,7.276,4.694,1.412,-3.73,-3.221,0.097,-5.72,-1.818,-12.994,-7.742,0.602,-22.589,3.73,3.221,-0.097,1.765,5.48,-13.072,-0.224,7.082,-22.843
-0.551,-0.014,27.726,-1.413,1.429,19.546,-7.438,-3.596,19.162,-4.928,-4.817,9.974,0.625,-10.801,15.315,4.617,6.457,19.835,6.112,7.816,10.448,7.326,4.752,1.265,-3.71,-3.242,0.144,-5.585,-1.848,-12.965,-7.83,0.56,-22.513,3.71,3.242,-0.144,1.719,5.408,-13.131,-0.393,7.031,-22.873
-0.567,-0.018,27.904,-1.234,1.372,19.562,-7.29,-3.617,19.181,-4.583,-4.83,10.048,0.928,-11.106,15.091,4.684,6.529,19.853,6.159,7.876,10.461,7.377,4.785,1.287,-3.652,-3.309,0.096,-5.745,-1.801,-12.967,-7.765,0.618,-22.562,3.652,3.309,-0.096,1.659,5.603,-13.061,-0.261,7.136,-22.857
-0.635,0.157,27.79,-1.398,1.535,19.539,-7.361,-3.565,19.149,-4.842,-4.798,9.966,1.034,-11.315,14.231,4.565,6.634,19.93,6.116,8.06,10.562,7.232,4.965,1.377,-3.651,-3.31,0.098,-5.539,-1.788,-12.995,-7.951,0.688,-22.485,3.651,3.31,-0.098,1.662,5.605,-13.063,-0.236,7.291,-22.838
-0.608,0.129,27.805,-1.398,1.48,19.543,-7.354,-3.628,19.16,-4.667,-4.658,10.0,1.451,-11.502,13.303,4.567,6.582,19.836,6.121,7.916,10.455,7.337,4.825,1.282,-3.678,-3.281,0.099,-5.859,-1.892,-12.963,-7.982,0.523,-22.538,3.678,3.281,-0.099,1.558,5.59,-13.04,-0.314,7.171,-22.838
-0.716,0.24,27.856,-1.349,1.598,19.538,-7.305,-3.51,19.155,-4.593,-4.665,10.016,1.665,-11.619,12.787,4.561,6.758,19.925,6.022,7.999,10.516,7.238,4.908,1.342,-3.653,-3.308,0.1,-5.867,-1.899,-12.955,-7.945,0.572,-22.525,3.653,3.308,-0.1,1.667,5.714,-13.045,-0.302,7.304,-22.822
-0.461,0.187,27.885,-1.227,1.481,19.555,-7.127,-3.69,19.167,-4.565,-4.95,10.0,1.905,-11.92,12.179,4.727,6.591,19.946,6.286,8.03,10.582,7.483,4.878,1.426,-3.696,-3.26,0.098,-5.55,-1.866,-13.014,-7.686,0.572,-22.579,3.696,3.26,-0.098,1.985,5.617,-13.091,-0.024,7.16,-22.868
-0.657,0.087,27.856,-1.338,1.473,19.548,-7.251,-3.684,19.162,-4.658,-5.183,10.038,1.889,-12.282,11.423,4.576,6.629,19.935,6.131,7.962,10.554,7.345,4.782,1.411,-3.602,-3.364,0.098,-5.477,-1.853,-12.998,-7.731,0.579,-22.538,3.602,3.364,-0.098,1.767,5.609,-13.094,-0.167,7.154,-22.886
-0.612,0.11,27.929,-1.278,1.419,19.556,-7.228,-3.696,19.173,-4.595,-5.268,10.074,1.927,-12.471,10.952,4.63,6.589,19.847,6.098,7.936,10.454,7.301,4.872,1.27,-3.647,-3.315,0.098,-5.642,-2.009,-13.002,-7.735,0.485,-22.563,3.647,3.315,-0.098,1.677,5.591,-13.069,-0.193,7.091,-22.88
-0.713,0.218,27.872,-1.39,1.527,19.54,-7.351,-3.575,19.15,-4.953,-5.141,9.985,1.617,-12.347,10.323,4.522,6.692,19.831,5.897,8.041,10.424,7.2,4.981,1.252,-3.65,-3.311,0.098,-5.63,-1.802,-12.983,-7.853,0.71,-22.509,3.65,3.311,-0.098,1.567,5.695,-13.032,-0.304,7.276,-22.83
-0.641,0.096,27.849,-1.343,1.473,19.548,-7.269,-3.675,19.258,-4.518,-5.351,10.213,2.259,-12.346,9.631,4.584,6.62,19.837,5.969,7.875,10.419,7.391,4.793,1.272,-3.608,-3.357,0.098,-5.601,-1.954,-12.993,-7.879,0.605,-22.494,3.608,3.357,-0.098,2.058,5.567,-13.137,-0.2,7.171,-22.85
-0.697,0.007,27.863,-1.344,1.423,19.552,-7.311,-3.678,19.265,-4.777,-5.365,10.158,2.072,-12.172,8.766,4.578,6.575,19.841,6.057,7.828,10.437,7.266,4.764,1.253,-3.631,-3.331,0.148,-5.59,-1.843,-12.938,-7.961,0.478,-22.478,3.631,3.331,-0.148,1.694,5.556,-13.133,-0.273,7.124,-22.914
-0.608,0.01,27.894,-1.232,1.43,19.558,-7.137,-3.737,19.171,-4.27,-5.424,10.163,2.307,-12.285,7.961,4.624,6.658,19.847,6.27,7.895,10.468,7.293,4.77,1.283,-3.623,-3.342,0.05,-5.572,-1.854,-13.039,-7.824,0.474,-22.605,3.623,3.342,-0.05,1.824,5.661,-13.038,-0.091,7.111,-22.848
-0.586,0.165,27.9,-1.288,1.47,19.552,-7.22,-3.666,19.167,-4.673,-5.352,10.064,1.734,-12.076,7.078,4.601,6.661,19.844,6.195,8.017,10.473,7.397,4.893,1.309,-3.643,-3.321,0.05,-5.61,-1.728,-13.023,-7.907,0.62,-22.573,3.643,3.321,-0.05,1.911,5.677,-13.041,-0.235,7.324,-22.771
-0.713,0.115,27.899,-1.336,1.473,19.548,-7.245,-3.688,19.161,-4.585,-5.387,10.093,1.492,-12.044,6.36,4.53,6.69,19.842,6.111,8.047,10.469,7.313,4.895,1.314,-3.599,-3.367,0.098,-5.67,-1.765,-12.958,-7.92,0.667,-22.498,3.599,3.367,-0.098,1.739,5.646,-13.085,-0.326,7.245,-22.841
-0.32,0.496,27.64,-1.689,1.514,19.518,-7.906,-3.275,19.159,-4.868,-4.916,10.199,1.331,-11.144,5.96,4.485,6.363,19.785,6.15,7.611,10.412,7.521,4.438,1.288,-3.85,-3.078,0.046,-15.706,-2.372,-5.976,-15.706,0.228,-15.735,3.85,3.078,-0.046,1.476,5.471,-12.928,-0.887,7.084,-22.613
-0.945,0.067,27.839,-1.612,1.407,19.532,-7.539,-3.734,19.147,-4.678,-5.403,10.134,0.627,-11.588,4.769,4.22,6.661,19.822,5.802,7.817,10.422,7.02,4.843,1.21,-3.613,-3.353,0.05,-6.144,-1.854,-12.937,-8.328,0.5,-22.513,3.613,3.353,-0.05,1.61,5.647,-13.013,-0.665,7.346,-22.705
-0.563,0.253,27.72,-1.739,1.349,19.526,-7.943,-3.456,19.165,-4.751,-5.231,10.285,0.589,-10.773,4.289,4.379,6.268,19.797,6.036,7.517,10.422,7.627,4.444,1.299,-3.795,-3.146,0.0,-15.669,-2.439,-5.984,-15.669,0.031,-15.777,3.795,3.146,0.0,1.444,5.302,-12.928,-0.979,6.981,-22.588
-1.118,0.089,27.963,-1.552,1.411,19.537,-7.469,-3.749,19.247,-4.392,-5.531,10.327,-0.086,-10.91,3.42,4.263,6.678,19.924,5.752,7.942,10.523,7.14,4.826,1.382,-3.629,-3.336,0.0,-6.186,-1.922,-12.991,-8.326,0.619,-22.529,3.629,3.336,0.0,1.426,5.606,-12.934,-0.655,7.299,-22.671
-0.958,0.058,27.954,-1.5,1.357,19.545,-7.373,-3.851,19.252,-4.228,-5.715,10.373,-0.187,-10.565,2.935,4.32,6.62,19.932,5.989,7.868,10.559,7.309,4.782,1.398,-3.63,-3.334,0.0,-5.973,-1.809,-13.019,-8.035,0.658,-22.593,3.63,3.334,0.0,1.289,5.507,-12.927,-0.616,7.111,-22.715
-0.694,0.126,27.945,-1.274,1.459,19.554,-7.144,-3.747,19.171,-3.895,-5.603,10.328,-0.308,-9.922,2.349,4.602,6.658,19.944,6.275,7.906,10.571,7.486,4.843,1.388,-3.633,-3.331,0.0,-5.857,-1.922,-13.053,-7.935,0.675,-22.589,3.633,3.331,0.0,1.778,5.593,-12.99,-0.331,7.132,-22.747
-0.799,0.05,28.099,-1.291,1.253,19.567,-7.18,-3.932,19.178,-3.783,-5.797,10.393,-0.823,-9.75,1.978,4.542,6.492,20.048,6.113,7.731,10.657,7.437,4.556,1.527,-3.642,-3.322,-0.048,-5.77,-2.018,-13.128,-7.969,0.572,-22.639,3.642,3.322,0.048,1.803,5.441,-12.968,-0.52,6.997,-22.673
-0.501,0.152,27.996,-1.217,1.351,19.565,-7.086,-3.855,19.175,-3.776,-5.687,10.349,-1.279,-9.436,1.695,4.605,6.618,19.855,6.369,7.864,10.499,7.488,4.77,1.315,-3.654,-3.308,0.0,-5.439,-1.891,-13.119,-7.704,0.772,-22.595,3.654,3.308,0.0,2.005,5.61,-13.011,-0.278,7.177,-22.724
-0.43,0.084,27.965,-1.22,1.298,19.568,-7.095,-3.902,19.179,-3.975,-5.748,10.287,-1.668,-9.327,1.509,4.657,6.496,19.958,6.232,7.84,10.582,7.642,4.786,1.424,-3.731,-3.222,0.0,-5.973,-1.91,-13.06,-7.788,0.752,-22.632,3.731,3.222,0.0,1.614,5.401,-12.964,-0.475,7.094,-22.7
-0.532,0.065,27.999,-1.22,1.298,19.568,-7.142,-3.849,19.183,-4.224,-5.708,10.226,-1.885,-9.224,1.431,4.704,6.442,19.954,6.183,7.789,10.563,7.494,4.73,1.392,-3.731,-3.222,0.0,-5.753,-1.798,-13.084,-7.811,0.774,-22.631,3.731,3.222,0.0,1.617,5.512,-12.946,-0.558,7.119,-22.677
-0.662,0.071,28.033,-1.327,1.243,19.565,-7.192,-3.969,19.182,-4.196,-5.595,10.205,-2.093,-9.229,1.399,4.539,6.454,19.948,6.099,7.693,10.555,7.418,4.607,1.394,-3.701,-3.255,0.0,-5.846,-1.932,-13.075,-7.748,0.7,-22.639,3.701,3.255,0.0,1.64,5.494,-12.963,-0.533,7.019,-22.708
-0.693,0.111,28.006,-1.341,1.31,19.56,-7.209,-3.904,19.272,-4.388,-5.557,10.244,-2.195,-9.148,1.442,4.478,6.573,19.947,6.163,7.833,10.578,7.46,4.8,1.396,-3.727,-3.225,0.0,-5.839,-1.814,-13.071,-7.765,0.739,-22.651,3.727,3.225,0.0,1.65,5.482,-12.958,-0.504,7.077,-22.695
-0.697,0.048,27.957,-1.445,1.243,19.557,-7.379,-3.898,19.268,-4.577,-5.639,10.25,-2.352,-9.264,1.469,4.487,6.378,19.942,6.081,7.735,10.571,7.389,4.791,1.361,-3.71,-3.245,0.0,-5.864,-1.813,-13.062,-7.8,0.74,-22.64,3.71,3.245,0.0,1.57,5.441,-12.958,-0.595,7.036,-22.693
-0.481,0.143,28.04,-1.117,1.359,19.57,-7.045,-3.786,19.281,-4.248,-5.529,10.262,-1.927,-9.24,1.543,4.811,6.499,19.956,6.389,7.843,10.58,7.706,4.874,1.381,-3.708,-3.248,0.0,-5.634,-1.703,-13.085,-7.531,0.802,-22.683,3.708,3.248,0.0,1.705,5.542,-12.963,-0.374,7.14,-22.716
-0.52,0.107,27.913,-1.236,1.412,19.559,-7.225,-3.657,19.179,-4.279,-5.409,10.21,-1.854,-9.297,1.597,4.666,6.588,19.851,6.272,7.849,10.468,7.694,4.795,1.312,-3.745,-3.206,0.0,-6.054,-1.754,-13.033,-7.714,0.713,-22.685,3.745,3.206,0.0,1.459,5.415,-12.931,-0.616,7.082,-22.673
-0.529,0.098,27.92,-1.229,1.409,19.56,-7.208,-3.671,19.179,-4.17,-5.418,10.239,-1.646,-9.295,1.65,4.664,6.595,19.852,6.348,7.749,10.469,7.681,4.753,1.28,-3.738,-3.212,-0.048,-5.673,-1.776,-13.143,-7.594,0.752,-22.731,3.738,3.212,0.048,1.711,5.411,-12.928,-0.424,7.064,-22.66
-0.548,0.102,27.917,-1.236,1.42,19.559,-7.17,-3.721,19.27,-4.209,-5.491,10.309,-1.396,-9.514,1.877,4.697,6.554,19.944,6.378,7.707,10.561,7.709,4.711,1.372,-3.736,-3.215,0.0,-5.53,-1.799,-13.118,-7.575,0.748,-22.675,3.736,3.215,0.0,1.625,5.267,-12.986,-0.369,7.031,-22.729
-0.641,0.151,27.944,-1.23,1.474,19.555,-7.247,-3.568,19.266,-4.204,-5.439,10.353,-1.19,-9.561,2.04,4.696,6.617,19.949,6.351,7.854,10.572,7.784,4.745,1.436,-3.754,-3.195,0.0,-6.099,-1.885,-13.042,-7.675,0.761,-22.66,3.754,3.195,0.0,1.508,5.388,-12.94,-0.432,7.115,-22.7
-0.727,0.142,27.986,-1.288,1.419,19.556,-7.306,-3.614,19.17,-4.198,-5.522,10.288,-0.926,-9.858,2.183,4.593,6.62,19.848,6.363,7.771,10.481,7.597,4.653,1.319,-3.708,-3.248,-0.0,-6.056,-1.83,-13.03,-7.841,0.68,-22.649,3.708,3.248,0.0,1.606,5.411,-12.97,-0.467,7.091,-22.711
-0.722,0.277,27.884,-1.349,1.586,19.539,-7.324,-3.506,19.252,-4.108,-5.406,10.407,-0.475,-9.955,2.577,4.586,6.717,19.932,6.36,7.869,10.566,7.682,4.693,1.435,-3.713,-3.241,0.049,-5.836,-2.045,-13.042,-7.739,0.687,-22.577,3.713,3.241,-0.049,1.722,5.407,-13.035,-0.383,7.195,-22.75
-0.9,0.223,27.75,-1.625,1.584,19.518,-7.601,-3.506,19.226,-4.391,-5.406,10.378,-0.492,-10.206,2.832,4.404,6.605,19.91,6.173,7.851,10.555,7.48,4.703,1.414,-3.686,-3.272,0.049,-6.216,-1.985,-12.961,-8.013,0.652,-22.543,3.686,3.272,-0.049,1.619,5.511,-13.012,-0.568,7.213,-22.723
-1.123,0.194,27.761,-1.73,1.583,19.509,-7.743,-3.463,19.219,-4.543,-5.365,10.368,-0.224,-10.462,3.257,4.243,6.681,19.704,5.944,7.856,10.327,7.259,4.68,1.196,-3.681,-3.278,0.049,-6.22,-1.982,-12.957,-8.208,0.62,-22.512,3.681,3.278,-0.049,1.436,5.359,-13.008,-0.676,7.172,-22.717
-1.131,0.224,27.745,-1.787,1.579,19.504,-7.808,-3.458,19.215,-4.63,-5.34,10.352,0.073,-10.785,3.763,4.149,6.721,19.701,5.84,7.885,10.321,7.266,4.597,1.247,-3.71,-3.245,0.0,-6.429,-1.866,-12.962,-8.271,0.611,-22.578,3.71,3.245,0.0,1.42,5.478,-12.926,-0.767,7.18,-22.638
-1.016,0.257,27.697,-1.744,1.633,19.504,-7.738,-3.435,19.213,-4.634,-5.216,10.302,0.255,-11.09,4.237,4.21,6.754,19.7,6.012,7.82,10.329,7.352,4.617,1.211,-3.725,-3.229,0.0,-6.521,-1.82,-12.942,-8.198,0.568,-22.611,3.725,3.229,0.0,1.576,5.425,-12.956,-0.654,7.247,-22.637
-1.196,0.18,27.728,-1.683,1.692,19.504,-7.659,-3.399,19.217,-4.467,-5.174,10.337,0.914,-11.237,4.908,4.309,6.764,19.801,5.988,7.917,10.418,7.417,4.63,1.344,-3.665,-3.296,0.05,-6.304,-1.905,-12.928,-8.312,0.492,-22.531,3.665,3.296,-0.05,1.575,5.442,-13.024,-0.63,7.24,-22.715
-0.927,0.352,27.714,-1.736,1.638,19.504,-7.758,-3.399,19.215,-4.579,-5.281,10.352,1.054,-11.589,5.488,4.192,6.783,19.793,5.871,7.842,10.399,7.297,4.554,1.324,-3.713,-3.241,0.05,-6.243,-1.954,-12.96,-8.154,0.574,-22.55,3.713,3.241,-0.05,1.501,5.511,-12.982,-0.655,7.189,-22.706
-1.223,0.407,27.672,-1.842,1.799,19.48,-7.858,-3.243,19.19,-4.831,-5.325,10.319,1.146,-11.781,6.101,4.133,6.89,19.772,5.824,7.958,10.381,7.333,4.704,1.308,-3.683,-3.275,0.049,-6.29,-1.789,-12.924,-8.221,0.659,-22.53,3.683,3.275,-0.049,1.459,5.563,-12.977,-0.662,7.216,-22.712
-0.992,0.497,27.647,-1.674,1.904,19.485,-7.696,-3.133,19.196,-4.736,-5.242,10.309,1.498,-11.825,6.703,4.26,7.043,19.78,6.034,8.099,10.403,7.36,4.807,1.315,-3.71,-3.244,0.098,-5.932,-1.727,-12.943,-8.039,0.766,-22.501,3.71,3.244,-0.098,1.698,5.668,-13.035,-0.524,7.33,-22.746
-0.957,0.363,27.759,-1.629,1.697,19.508,-7.606,-3.392,19.216,-4.638,-5.395,10.307,1.799,-12.08,7.297,4.305,6.835,19.803,6.078,7.987,10.437,7.393,4.723,1.337,-3.687,-3.271,0.098,-5.772,-1.88,-12.979,-8.111,0.625,-22.479,3.687,3.271,-0.098,1.551,5.467,-13.057,-0.504,7.216,-22.789
-0.96,0.373,27.688,-1.623,1.796,19.5,-7.604,-3.288,19.208,-4.506,-5.409,10.371,2.157,-12.108,7.939,4.369,6.868,19.797,6.144,8.019,10.431,7.351,4.779,1.308,-3.689,-3.268,0.098,-6.242,-1.971,-12.906,-8.03,0.538,-22.524,3.689,3.268,-0.098,1.67,5.579,-13.055,-0.49,7.256,-22.778
-0.907,0.334,27.777,-1.564,1.684,19.514,-7.545,-3.4,19.223,-4.439,-5.415,10.363,2.425,-12.127,8.622,4.319,6.876,19.904,6.174,7.921,10.541,7.406,4.713,1.41,-3.665,-3.296,0.05,-5.754,-1.905,-13.028,-8.118,0.623,-22.515,3.665,3.296,-0.05,1.92,5.56,-13.055,-0.438,7.256,-22.728
-0.919,0.418,27.818,-1.505,1.748,19.513,-7.416,-3.418,19.223,-4.228,-5.427,10.391,2.629,-12.269,9.224,4.415,6.902,19.81,6.289,8.062,10.464,7.502,4.882,1.32,-3.651,-3.311,0.049,-5.831,-1.922,-13.013,-7.967,0.62,-22.552,3.651,3.311,-0.049,1.905,5.593,-13.051,-0.389,7.172,-22.759
-0.954,0.471,27.854,-1.572,1.702,19.512,-7.54,-3.398,19.22,-4.377,-5.387,10.374,2.533,-12.262,9.966,4.252,6.965,19.808,6.127,8.219,10.475,7.442,5.044,1.344,-3.657,-3.305,0.05,-5.626,-1.806,-13.034,-8.047,0.568,-22.548,3.657,3.305,-0.05,1.789,5.474,-13.054,-0.438,7.229,-22.747
-0.743,0.464,27.795,-1.453,1.752,19.517,-7.317,-3.467,19.223,-4.067,-5.553,10.432,2.746,-12.534,10.6,4.467,6.907,19.813,6.15,8.071,10.432,7.455,5.012,1.26,-3.675,-3.284,0.097,-5.944,-1.906,-12.951,-7.759,0.548,-22.579,3.675,3.284,-0.097,1.745,5.509,-13.083,-0.352,7.132,-22.828
-3.995,-2.898,26.723,-1.164,1.599,19.55,-6.4,-4.247,19.214,-3.865,-6.257,10.173,2.097,-13.921,11.12,3.957,7.54,19.995,5.232,8.69,10.548,6.246,5.592,1.352,-3.21,-3.739,0.113,-4.964,-2.564,-13.035,-6.43,0.086,-22.67,3.21,3.739,-0.113,1.801,5.993,-13.16,0.14,7.604,-22.991
-0.727,0.408,27.798,-1.463,1.694,19.521,-7.396,-3.447,19.232,-4.106,-5.32,10.408,2.71,-12.156,11.824,4.48,6.823,19.816,6.145,8.059,10.441,7.497,4.919,1.303,-3.668,-3.293,0.05,-6.101,-2.11,-12.989,-7.891,0.399,-22.606,3.668,3.293,-0.05,1.658,5.475,-13.031,-0.339,7.158,-22.787
-0.692,0.338,27.778,-1.466,1.648,19.525,-7.343,-3.556,19.233,-4.056,-5.324,10.386,2.634,-12.165,12.295,4.413,6.844,19.915,6.072,8.081,10.539,7.408,4.968,1.389,-3.684,-3.274,0.048,-5.756,-1.998,-13.043,-7.788,0.652,-22.575,3.684,3.274,-0.048,1.726,5.407,-13.046,-0.363,7.1,-22.781
-0.685,0.329,27.782,-1.458,1.639,19.526,-7.388,-3.504,19.231,-4.263,-5.245,10.32,2.403,-11.88,12.915,4.423,6.839,19.819,6.002,8.089,10.431,7.421,4.919,1.313,-3.684,-3.274,0.049,-5.983,-1.993,-13.004,-7.785,0.541,-22.614,3.684,3.274,-0.049,1.699,5.551,-13.017,-0.361,7.137,-22.776
-0.888,0.296,27.69,-1.687,1.651,19.507,-7.654,-3.45,19.214,-4.311,-5.195,10.384,2.085,-11.881,13.478,4.232,6.807,19.797,5.9,8.055,10.424,7.115,4.876,1.28,-3.629,-3.335,0.099,-6.009,-2.064,-12.941,-8.021,0.459,-22.511,3.629,3.335,-0.099,1.569,5.574,-13.062,-0.485,7.161,-22.823
-0.749,0.364,27.766,-1.498,1.685,19.52,-7.406,-3.478,19.132,-4.189,-5.054,10.224,2.071,-11.721,13.621,4.37,6.9,19.813,6.038,8.053,10.428,7.259,5.053,1.225,-3.678,-3.281,0.049,-6.085,-1.78,-12.961,-7.997,0.542,-22.602,3.678,3.281,-0.049,1.627,5.737,-12.975,-0.472,7.276,-22.733
-0.875,0.27,27.764,-1.562,1.643,19.518,-7.469,-3.528,19.227,-4.327,-5.181,10.306,1.819,-11.562,14.392,4.305,6.857,19.818,6.095,8.126,10.47,7.289,5.09,1.275,-3.624,-3.342,-0.0,-6.027,-1.84,-13.011,-8.042,0.476,-22.632,3.624,3.342,0.0,1.665,5.491,-12.994,-0.448,7.064,-22.744
-0.745,0.347,27.782,-1.506,1.648,19.522,-7.403,-3.533,19.231,-4.073,-5.174,10.376,1.705,-11.43,15.135,4.398,6.815,19.918,6.15,8.061,10.56,7.46,4.974,1.397,-3.643,-3.32,0.049,-5.917,-1.933,-12.997,-7.941,0.511,-22.586,3.643,3.32,-0.049,1.645,5.52,-13.029,-0.352,7.073,-22.807
-0.736,0.418,27.767,-1.447,1.757,19.517,-7.338,-3.425,19.128,-4.363,-4.947,10.127,1.282,-10.882,15.427,4.456,6.931,19.814,6.126,8.191,10.443,7.325,5.128,1.258,-3.665,-3.296,0.049,-5.833,-2.012,-13.026,-7.91,0.584,-22.563,3.665,3.296,-0.049,1.688,5.591,-13.015,-0.4,7.153,-22.773
-0.68,0.328,27.732,-1.519,1.647,19.521,-7.436,-3.505,19.135,-4.434,-5.026,10.142,1.19,-10.687,15.755,4.358,6.852,19.814,6.031,8.006,10.43,7.369,4.983,1.25,-3.657,-3.305,0.049,-5.754,-1.903,-13.026,-7.962,0.585,-22.562,3.657,3.305,-0.049,1.626,5.521,-13.021,-0.45,7.139,-22.772
-0.552,0.4,27.868,-1.409,1.547,19.538,-7.372,-3.559,19.244,-4.38,-5.08,10.248,0.861,-10.611,16.341,4.501,6.707,19.925,6.057,7.946,10.531,7.385,4.832,1.381,-3.699,-3.258,0.048,-5.95,-1.786,-12.993,-7.769,0.562,-22.646,3.699,3.258,-0.048,1.643,5.497,-13.012,-0.395,6.992,-22.791
-0.663,0.259,27.824,-1.39,1.586,19.536,-7.335,-3.535,19.152,-4.352,-5.056,10.153,0.643,-10.258,16.723,4.521,6.751,19.833,6.072,7.991,10.438,7.395,4.877,1.287,-3.672,-3.288,0.05,-5.987,-2.095,-13.009,-8.056,0.377,-22.581,3.672,3.288,-0.05,1.719,5.548,-13.026,-0.392,7.04,-22.789
-0.468,0.33,27.849,-1.343,1.531,19.543,-7.357,-3.514,19.254,-4.265,-5.134,10.309,0.547,-10.03,17.242,4.626,6.623,19.933,6.184,7.956,10.553,7.598,4.785,1.435,-3.679,-3.28,0.049,-5.696,-1.965,-13.048,-7.882,0.501,-22.595,3.679,3.28,-0.049,1.814,5.559,-13.034,-0.357,7.085,-22.779
-0.524,0.378,27.767,-1.581,1.491,19.529,-7.59,-3.554,19.143,-4.37,-5.184,10.245,0.004,-9.888,17.588,4.39,6.587,19.821,6.056,7.93,10.461,7.371,4.754,1.33,-3.751,-3.198,0.048,-5.903,-1.828,-13.021,-7.945,0.51,-22.632,3.751,3.198,-0.048,1.899,5.35,-13.058,-0.445,6.903,-22.758
-0.465,0.476,27.795,-1.408,1.64,19.53,-7.437,-3.382,19.146,-4.301,-5.122,10.239,-0.104,-9.406,17.935,4.536,6.767,19.825,6.312,8.013,10.471,7.641,4.927,1.311,-3.715,-3.24,0.048,-6.036,-1.737,-12.977,-7.85,0.693,-22.611,3.715,3.24,-0.048,1.737,5.499,-13.021,-0.496,7.143,-22.732
-0.635,0.387,27.67,-1.627,1.642,19.513,-7.697,-3.336,19.221,-4.521,-5.26,10.366,-0.653,-9.251,18.385,4.443,6.614,19.902,6.098,7.944,10.537,7.419,4.858,1.377,-3.705,-3.25,0.096,-5.892,-1.755,-12.953,-8.021,0.659,-22.526,3.705,3.25,-0.096,1.365,5.534,-13.004,-0.625,7.135,-22.775
-0.634,0.396,27.667,-1.631,1.647,19.512,-7.647,-3.391,19.127,-4.464,-5.212,10.253,-0.869,-8.936,18.523,4.352,6.728,19.81,6.214,7.971,10.473,7.536,4.885,1.312,-3.706,-3.25,0.048,-5.911,-1.851,-13.009,-8.034,0.667,-22.557,3.706,3.25,-0.048,1.459,5.443,-12.988,-0.597,7.111,-22.735
-0.617,0.374,27.684,-1.575,1.651,19.516,-7.634,-3.333,19.127,-4.535,-5.283,10.251,-0.973,-8.754,18.644,4.44,6.696,19.806,6.094,7.84,10.417,7.412,4.753,1.256,-3.678,-3.282,0.0,-6.302,-1.997,-12.991,-7.987,0.541,-22.62,3.678,3.282,0.0,1.698,5.448,-12.988,-0.481,7.151,-22.702
-0.399,0.514,27.682,-1.474,1.707,19.519,-7.597,-3.201,19.136,-4.475,-5.15,10.267,-1.042,-8.47,18.774,4.612,6.665,19.81,6.275,7.995,10.447,7.61,4.792,1.329,-3.762,-3.183,0.096,-5.872,-1.889,-12.988,-7.749,0.693,-22.57,3.762,3.183,-0.096,1.803,5.534,-13.055,-0.497,7.162,-22.754
-0.588,0.447,27.721,-1.511,1.693,19.518,-7.579,-3.286,19.226,-4.631,-5.206,10.292,-1.366,-8.259,18.965,4.61,6.602,19.91,6.264,7.932,10.546,7.585,4.846,1.385,-3.731,-3.221,0.048,-5.825,-1.713,-13.015,-7.871,0.625,-22.625,3.731,3.221,-0.048,1.878,5.483,-13.039,-0.441,7.073,-22.74
-0.416,0.432,27.702,-1.467,1.643,19.525,-7.588,-3.265,19.142,-4.597,-5.203,10.226,-1.327,-8.002,18.981,4.618,6.603,19.816,6.313,7.863,10.449,7.629,4.803,1.279,-3.737,-3.215,0.0,-5.857,-1.696,-13.058,-7.784,0.624,-22.697,3.737,3.215,0.0,1.871,5.367,-13.008,-0.459,6.956,-22.705
-0.404,0.418,27.656,-1.517,1.639,19.522,-7.591,-3.327,19.134,-4.512,-5.36,10.269,-1.461,-8.07,19.131,4.607,6.55,19.81,6.285,7.798,10.438,7.611,4.712,1.279,-3.711,-3.244,0.048,-5.721,-1.831,-13.039,-7.749,0.589,-22.633,3.711,3.244,-0.048,1.735,5.393,-13.04,-0.374,7.099,-22.768
-0.541,0.317,27.596,-1.618,1.634,19.514,-7.629,-3.401,19.032,-4.623,-5.359,10.126,-1.344,-7.933,18.947,4.497,6.556,19.803,6.169,7.804,10.43,7.486,4.628,1.3,-3.706,-3.251,0.0,-5.709,-1.837,-13.088,-7.838,0.577,-22.661,3.706,3.251,0.0,1.591,5.43,-12.965,-0.549,7.015,-22.707
-0.5,0.224,27.638,-1.51,1.589,19.527,-7.515,-3.461,19.14,-4.647,-5.407,10.185,-1.391,-8.096,18.98,4.554,6.575,19.819,6.204,7.812,10.441,7.532,4.698,1.291,-3.725,-3.227,0.097,-5.724,-2.029,-13.013,-7.801,0.442,-22.583,3.725,3.227,-0.097,1.864,5.507,-13.084,-0.32,6.985,-22.833
-0.443,0.299,27.685,-1.461,1.593,19.53,-7.565,-3.336,19.145,-4.464,-5.287,10.269,-1.192,-8.229,18.977,4.604,6.571,19.919,6.258,7.808,10.542,7.577,4.721,1.381,-3.751,-3.197,0.048,-5.616,-1.909,-13.073,-7.615,0.488,-22.679,3.751,3.197,-0.048,1.659,5.471,-13.0,-0.382,6.966,-22.778
-0.545,0.3,27.655,-1.515,1.643,19.522,-7.628,-3.282,19.233,-4.65,-5.221,10.313,-1.056,-8.232,18.869,4.554,6.615,19.911,6.224,7.957,10.551,7.53,4.809,1.409,-3.705,-3.25,0.096,-5.602,-1.942,-13.019,-7.706,0.551,-22.577,3.705,3.25,-0.096,1.609,5.523,-13.048,-0.482,7.051,-22.81
-0.537,0.331,27.638,-1.631,1.58,19.518,-7.715,-3.374,19.13,-4.718,-5.311,10.217,-0.934,-8.474,18.635,4.512,6.468,19.811,6.176,7.891,10.462,7.503,4.716,1.332,-3.743,-3.206,0.097,-5.732,-1.814,-12.996,-7.882,0.496,-22.59,3.743,3.206,-0.097,1.599,5.514,-13.034,-0.607,7.05,-22.769
-0.691,0.331,27.727,-1.615,1.576,19.519,-7.681,-3.399,19.13,-4.675,-5.357,10.224,-0.736,-8.705,18.499,4.407,6.613,19.809,6.078,7.861,10.436,7.396,4.685,1.305,-3.732,-3.22,0.048,-6.062,-1.92,-12.997,-7.849,0.487,-22.642,3.732,3.22,-0.048,1.62,5.511,-12.994,-0.472,7.039,-22.756
-0.608,0.266,27.71,-1.576,1.538,19.526,-7.588,-3.496,19.044,-4.544,-5.367,10.131,-0.48,-9.075,18.189,4.443,6.571,19.911,6.1,7.808,10.534,7.429,4.605,1.415,-3.682,-3.276,0.049,-5.595,-2.068,-13.074,-7.765,0.374,-22.63,3.682,3.276,-0.049,1.679,5.347,-13.049,-0.395,6.946,-22.803
-0.628,0.387,27.672,-1.622,1.638,19.514,-7.633,-3.397,19.032,-4.62,-5.25,10.105,-0.337,-9.063,17.998,4.395,6.673,19.899,6.052,7.91,10.522,7.381,4.706,1.403,-3.705,-3.25,0.048,-5.96,-1.929,-13.009,-7.71,0.534,-22.646,3.705,3.25,-0.048,1.496,5.521,-12.982,-0.579,7.037,-22.749
-0.788,0.395,27.757,-1.674,1.588,19.513,-7.673,-3.462,19.03,-4.673,-5.315,10.099,-0.151,-9.389,17.725,4.331,6.637,19.9,5.98,7.874,10.522,7.307,4.76,1.371,-3.7,-3.256,0.098,-5.805,-2.06,-12.996,-7.861,0.389,-22.576,3.7,3.256,-0.098,1.745,5.625,-13.055,-0.438,7.078,-22.808
-0.758,0.315,27.618,-1.602,1.747,19.506,-7.587,-3.327,19.117,-4.62,-5.39,10.222,0.125,-9.711,17.571,4.441,6.757,19.8,6.093,8.005,10.424,7.399,4.918,1.261,-3.686,-3.272,0.048,-5.759,-1.871,-13.03,-7.739,0.527,-22.639,3.686,3.272,-0.048,1.739,5.422,-13.044,-0.392,7.019,-22.787
-0.792,0.403,27.745,-1.568,1.702,19.513,-7.574,-3.348,19.126,-4.433,-5.547,10.323,0.581,-10.09,17.352,4.352,6.857,19.809,6.114,8.008,10.44,7.438,4.805,1.321,-3.702,-3.254,0.049,-5.685,-1.958,-13.054,-7.807,0.456,-22.629,3.702,3.254,-0.049,1.498,5.415,-13.002,-0.36,6.984,-22.805
-0.902,0.38,27.843,-1.493,1.689,19.52,-7.478,-3.385,19.139,-4.305,-5.394,10.302,0.689,-10.392,17.03,4.41,6.857,19.915,6.069,8.011,10.528,7.378,4.924,1.366,-3.669,-3.291,0.0,-5.687,-1.966,-13.095,-7.863,0.399,-22.67,3.669,3.291,0.0,1.5,5.654,-12.923,-0.381,7.083,-22.743
-0.702,0.398,27.826,-1.392,1.694,19.527,-7.338,-3.417,19.048,-4.264,-5.54,10.202,1.098,-10.659,16.545,4.577,6.792,19.826,6.24,8.04,10.451,7.555,4.954,1.29,-3.723,-3.23,0.049,-5.718,-1.924,-13.052,-7.716,0.37,-22.683,3.723,3.23,-0.049,1.525,5.501,-12.984,-0.362,6.93,-22.802
-0.943,0.404,27.767,-1.567,1.761,19.507,-7.509,-3.355,19.028,-4.214,-5.589,10.29,1.229,-11.009,16.305,4.345,6.925,19.804,6.005,8.173,10.429,7.309,4.909,1.328,-3.67,-3.289,0.097,-5.755,-1.995,-12.99,-7.91,0.449,-22.55,3.67,3.289,-0.097,1.36,5.446,-13.033,-0.52,7.039,-22.827
-0.857,0.306,27.813,-1.444,1.689,19.523,-7.441,-3.361,19.04,-4.173,-5.572,10.287,1.358,-11.172,16.052,4.472,6.849,19.82,6.054,8.111,10.433,7.455,5.056,1.274,-3.699,-3.257,0.098,-5.802,-1.953,-12.986,-7.901,0.439,-22.571,3.699,3.257,-0.098,1.485,5.545,-13.027,-0.387,7.045,-22.838
-0.762,0.367,27.882,-1.394,1.64,19.531,-7.399,-3.41,19.145,-4.158,-5.6,10.375,1.582,-11.391,15.733,4.472,6.856,19.825,6.139,8.01,10.439,7.352,4.83,1.296,-3.651,-3.311,0.049,-5.649,-2.006,-13.051,-7.731,0.364,-22.645,3.651,3.311,-0.049,1.643,5.511,-13.027,-0.35,6.974,-22.82
-0.882,0.468,27.826,-1.506,1.752,19.513,-7.459,-3.351,19.025,-4.167,-5.689,10.313,1.714,-11.721,15.234,4.308,7.026,19.81,6.065,8.272,10.453,7.287,5.064,1.32,-3.648,-3.313,0.098,-5.84,-1.808,-12.949,-7.837,0.486,-22.58,3.648,3.313,-0.098,1.528,5.51,-13.059,-0.489,7.075,-22.831
-0.824,0.395,27.813,-1.556,1.643,19.519,-7.456,-3.529,19.123,-4.199,-5.741,10.365,1.791,-11.991,14.866,4.301,6.869,19.819,6.143,8.207,10.491,7.448,5.031,1.358,-3.666,-3.294,0.098,-5.654,-1.988,-13.004,-7.706,0.36,-22.61,3.666,3.294,-0.098,1.507,5.422,-13.064,-0.441,6.838,-22.872
-0.85,0.496,27.754,-1.622,1.742,19.505,-7.554,-3.393,19.111,-4.152,-5.489,10.38,2.075,-11.894,14.303,4.214,6.992,19.8,5.97,8.226,10.441,7.403,5.028,1.336,-3.662,-3.298,0.098,-5.906,-1.878,-12.951,-7.79,0.501,-22.584,3.662,3.298,-0.098,1.43,5.586,-13.024,-0.473,7.014,-22.839
-1.031,0.385,27.698,-1.666,1.805,19.495,-7.513,-3.426,19.103,-4.058,-5.621,10.417,2.19,-12.216,13.973,4.139,7.09,19.793,5.986,8.239,10.44,7.291,5.063,1.308,-3.59,-3.376,0.098,-6.009,-2.185,-12.942,-7.739,0.379,-22.556,3.59,3.376,-0.098,1.545,5.616,-13.064,-0.418,7.042,-22.868
-0.987,0.426,27.815,-1.495,1.806,19.509,-7.336,-3.438,19.214,-3.981,-5.538,10.466,2.355,-12.32,13.475,4.3,7.102,19.807,6.063,8.264,10.44,7.364,5.088,1.307,-3.609,-3.356,0.098,-5.895,-2.064,-12.957,-7.763,0.441,-22.561,3.609,3.356,-0.098,1.892,5.621,-13.107,-0.292,7.03,-22.866
-0.918,0.527,27.912,-1.543,1.672,19.517,-7.409,-3.539,19.126,-4.022,-5.636,10.39,2.511,-12.436,12.893,4.279,6.937,19.813,6.042,8.183,10.457,7.368,4.979,1.338,-3.652,-3.31,0.096,-6.012,-1.99,-12.942,-7.667,0.5,-22.588,3.652,3.31,-0.096,1.352,5.56,-13.018,-0.599,7.032,-22.817
-0.9,0.513,27.868,-1.62,1.642,19.513,-7.532,-3.514,19.119,-3.966,-5.698,10.475,2.508,-12.726,12.447,4.246,6.859,19.807,6.022,8.117,10.455,7.333,4.941,1.323,-3.65,-3.311,0.098,-5.635,-2.122,-13.015,-7.625,0.377,-22.596,3.65,3.311,-0.098,1.544,5.491,-13.064,-0.304,6.889,-22.895
-0.894,0.521,27.801,-1.609,1.738,19.506,-7.473,-3.474,19.115,-3.957,-5.583,10.433,2.621,-12.679,11.682,4.212,7.004,19.802,5.882,8.157,10.417,7.407,4.964,1.325,-3.653,-3.309,0.049,-6.032,-2.089,-12.996,-7.687,0.402,-22.642,3.653,3.309,-0.049,1.759,5.511,-13.044,-0.335,6.902,-22.826
-0.927,0.527,27.861,-1.608,1.688,19.511,-7.516,-3.474,19.115,-4.019,-5.689,10.451,2.587,-12.85,10.962,4.253,6.91,19.804,5.915,8.159,10.43,7.323,4.988,1.311,-3.62,-3.344,0.097,-5.707,-2.049,-12.99,-7.592,0.353,-22.617,3.62,3.344,-0.097,1.792,5.589,-13.095,-0.343,6.928,-22.875
-0.819,0.628,27.848,-1.385,1.901,19.508,-7.295,-3.265,19.218,-3.933,-5.572,10.524,2.838,-12.596,10.441,4.432,7.172,19.805,6.114,8.336,10.423,7.425,5.16,1.292,-3.623,-3.339,0.146,-5.495,-1.828,-12.951,-7.596,0.564,-22.535,3.623,3.339,-0.146,1.864,5.64,-13.143,-0.257,7.051,-22.916
-0.816,0.638,27.848,-1.445,1.856,19.508,-7.304,-3.369,19.214,-3.914,-5.697,10.538,3.005,-12.516,9.634,4.416,7.078,19.802,6.08,8.232,10.416,7.401,5.028,1.295,-3.622,-3.341,0.148,-5.799,-2.057,-12.925,-7.577,0.35,-22.571,3.622,3.341,-0.148,1.991,5.515,-13.184,-0.139,7.018,-22.941
-0.785,0.565,27.778,-1.427,1.896,19.506,-7.269,-3.341,19.113,-3.894,-5.672,10.431,2.994,-12.407,8.889,4.474,7.073,19.803,6.222,8.319,10.444,7.536,5.115,1.323,-3.587,-3.38,0.099,-5.677,-1.968,-12.976,-7.64,0.407,-22.594,3.587,3.38,-0.099,1.823,5.586,-13.111,-0.156,7.049,-22.906
-0.729,0.519,27.919,-1.326,1.74,19.527,-7.278,-3.373,19.136,-3.893,-5.702,10.457,2.858,-12.368,8.18,4.482,7.021,19.824,6.046,8.271,10.433,7.55,5.105,1.329,-3.619,-3.344,0.149,-5.701,-1.942,-12.929,-7.676,0.33,-22.569,3.619,3.344,-0.149,2.106,5.52,-13.198,-0.086,7.01,-22.944
-0.93,0.528,27.912,-1.489,1.73,19.516,-7.449,-3.372,19.126,-3.868,-5.784,10.549,2.702,-12.344,7.55,4.43,6.886,19.812,5.818,8.248,10.409,6.515,5.019,1.229,-3.599,-3.365,0.15,-5.922,-2.172,-12.908,-7.789,0.309,-22.518,3.599,3.365,-0.15,1.953,5.556,-13.18,-0.279,7.067,-22.914
-1.105,0.458,27.83,-1.601,1.792,19.502,-7.555,-3.324,19.208,-4.156,-5.803,10.577,2.198,-12.273,6.978,4.21,7.075,19.7,5.884,8.334,10.329,6.59,5.049,1.17,-3.566,-3.4,0.149,-5.648,-1.999,-12.928,-7.932,0.36,-22.48,3.566,3.4,-0.149,1.911,5.495,-13.194,-0.342,7.051,-22.915
-1.124,0.482,27.818,-1.651,1.787,19.498,-7.549,-3.387,19.11,-3.918,-5.767,10.546,2.086,-12.092,6.172,4.159,7.07,19.696,5.833,8.33,10.326,6.928,5.086,1.19,-3.592,-3.374,0.098,-5.709,-2.169,-12.993,-7.98,0.391,-22.495,3.592,3.374,-0.098,1.69,5.48,-13.108,-0.452,7.018,-22.858
-1.286,0.566,27.804,-1.833,1.794,19.481,-7.8,-3.306,19.188,-4.069,-5.775,10.692,1.449,-11.893,5.467,3.988,7.061,19.777,5.67,8.32,10.408,7.164,5.094,1.323,-3.575,-3.392,0.099,-5.685,-2.088,-12.984,-8.056,0.343,-22.496,3.575,3.392,-0.099,1.693,5.465,-13.117,-0.57,7.022,-22.836
-1.326,0.581,27.796,-1.881,1.794,19.477,-7.792,-3.371,19.18,-4.062,-5.74,10.655,1.01,-11.631,4.76,3.93,7.071,19.773,5.607,8.331,10.403,7.191,5.109,1.331,-3.595,-3.371,0.098,-6.106,-2.084,-12.915,-8.074,0.392,-22.507,3.595,3.371,-0.098,1.474,5.456,-13.078,-0.655,6.982,-22.832
-1.173,0.567,27.824,-1.666,1.845,19.491,-7.586,-3.311,19.201,-3.78,-5.646,10.701,0.996,-11.061,4.139,4.16,7.106,19.787,5.751,8.272,10.39,7.252,5.133,1.275,-3.632,-3.333,0.049,-5.87,-2.021,-13.011,-8.058,0.444,-22.558,3.632,3.333,-0.049,1.502,5.53,-13.009,-0.602,7.171,-22.749
-1.387,0.43,27.866,-1.71,1.782,19.494,-7.625,-3.379,19.203,-3.917,-5.725,10.662,0.619,-10.731,3.623,4.111,7.048,19.79,5.699,8.215,10.392,7.197,5.076,1.277,-3.576,-3.392,0.049,-6.238,-1.981,-12.921,-8.112,0.398,-22.556,3.576,3.392,-0.049,1.515,5.529,-13.03,-0.623,7.056,-22.782
-1.32,0.459,27.938,-1.587,1.778,19.504,-7.488,-3.399,19.213,-3.788,-5.646,10.642,0.331,-10.275,3.106,4.219,7.061,19.801,5.782,8.312,10.41,7.28,5.057,1.336,-3.567,-3.402,0.0,-6.129,-2.087,-13.0,-7.983,0.496,-22.587,3.567,3.402,0.0,1.65,5.526,-13.005,-0.461,7.042,-22.764
-1.121,0.534,27.965,-1.544,1.725,19.512,-7.416,-3.485,19.219,-3.684,-5.628,10.636,-0.085,-9.943,2.66,4.174,7.097,19.907,5.925,8.238,10.536,7.339,5.067,1.418,-3.578,-3.391,0.0,-6.177,-2.066,-12.992,-7.937,0.521,-22.595,3.578,3.391,0.0,1.681,5.593,-12.995,-0.428,7.075,-22.76
-1.219,0.51,27.883,-1.594,1.827,19.499,-7.413,-3.443,19.209,-3.833,-5.455,10.529,-0.295,-9.62,2.447,4.177,7.141,19.898,5.834,8.285,10.509,7.333,5.146,1.394,-3.551,-3.418,0.049,-6.041,-2.091,-12.964,-7.908,0.491,-22.548,3.551,3.418,-0.049,1.554,5.601,-13.032,-0.57,7.093,-22.792
-1.108,0.501,27.984,-1.484,1.725,19.517,-7.346,-3.496,19.223,-3.769,-5.408,10.52,-0.496,-9.45,2.266,4.328,6.996,19.912,5.974,8.326,10.547,7.477,5.072,1.473,-3.546,-3.424,0.0,-5.898,-1.996,-13.028,-7.869,0.48,-22.619,3.546,3.424,0.0,1.655,5.627,-12.995,-0.337,7.09,-22.788
-0.999,0.507,28.006,-1.437,1.676,19.525,-7.252,-3.597,19.234,-3.755,-5.413,10.478,-0.684,-9.361,2.101,4.331,7.001,19.818,6.014,8.261,10.449,7.409,5.03,1.35,-3.602,-3.365,0.049,-6.266,-2.061,-12.932,-7.813,0.434,-22.596,3.602,3.365,-0.049,1.573,5.468,-13.04,-0.369,7.035,-22.827
-0.973,0.61,28.096,-1.377,1.668,19.53,-7.249,-3.542,19.237,-3.85,-5.468,10.466,-0.861,-9.339,2.024,4.392,6.986,19.921,5.964,8.331,10.544,7.459,5.105,1.459,-3.579,-3.389,0.049,-5.705,-1.968,-13.018,-7.934,0.543,-22.544,3.579,3.389,-0.049,1.651,5.627,-13.033,-0.374,7.192,-22.803
-1.026,0.545,28.156,-1.38,1.565,19.538,-7.199,-3.704,19.248,-3.89,-5.535,10.422,-0.902,-9.406,1.979,4.287,6.997,19.832,5.971,8.257,10.463,7.471,5.118,1.348,-3.629,-3.336,0.0,-5.974,-2.026,-13.042,-7.863,0.478,-22.642,3.629,3.336,0.0,1.846,5.428,-13.029,-0.34,6.987,-22.765
-0.985,0.488,28.069,-1.379,1.623,19.534,-7.14,-3.709,19.24,-3.84,-5.541,10.411,-0.974,-9.517,1.975,4.331,7.01,19.825,6.012,8.174,10.443,7.507,5.035,1.327,-3.597,-3.369,0.048,-5.899,-1.972,-12.992,-7.805,0.453,-22.609,3.597,3.369,-0.048,1.935,5.351,-13.11,-0.258,7.002,-22.83
-1.022,0.613,28.136,-1.322,1.681,19.533,-7.17,-3.555,19.244,-3.754,-5.398,10.462,-0.898,-9.375,2.023,4.427,7.02,19.925,5.976,8.26,10.53,7.478,5.093,1.425,-3.642,-3.322,0.0,-5.863,-2.01,-13.063,-7.739,0.495,-22.666,3.642,3.322,0.0,1.77,5.395,-13.019,-0.383,7.023,-22.752
-1.075,0.443,28.12,-1.377,1.573,19.538,-7.175,-3.713,19.149,-3.855,-5.564,10.332,-0.912,-9.616,1.959,4.428,6.857,19.835,6.069,8.188,10.468,7.473,5.016,1.349,-3.617,-3.348,0.0,-5.929,-2.048,-13.049,-7.682,0.439,-22.679,3.617,3.348,0.0,1.758,5.294,-13.041,-0.316,6.925,-22.79
-1.132,0.5,28.034,-1.48,1.668,19.522,-7.335,-3.556,19.138,-3.812,-5.39,10.397,-0.774,-9.514,2.093,4.281,6.999,19.816,5.93,8.236,10.438,7.339,5.065,1.32,-3.623,-3.342,0.049,-5.869,-2.02,-13.01,-7.84,0.456,-22.601,3.623,3.342,-0.049,1.499,5.426,-13.028,-0.504,6.98,-22.804
-1.065,0.676,28.113,-1.438,1.685,19.524,-7.343,-3.487,19.233,-3.833,-5.426,10.509,-0.621,-9.607,2.3,4.369,6.968,19.815,5.934,8.218,10.425,7.341,5.047,1.306,-3.595,-3.372,0.049,-5.697,-2.068,-13.035,-7.783,0.527,-22.57,3.595,3.372,-0.049,1.72,5.446,-13.068,-0.375,7.008,-22.824
-1.268,0.621,28.14,-1.485,1.685,19.521,-7.377,-3.503,19.229,-3.945,-5.469,10.479,-0.439,-9.64,2.386,4.255,7.033,19.914,5.88,8.167,10.518,7.185,5.08,1.356,-3.56,-3.409,0.05,-6.289,-2.223,-12.929,-7.921,0.47,-22.526,3.56,3.409,-0.05,1.614,5.559,-13.046,-0.569,7.049,-22.793
-1.168,0.693,28.014,-1.548,1.787,19.506,-7.362,-3.487,19.216,-3.8,-5.339,10.493,-0.016,-9.737,2.65,4.267,7.06,19.797,5.937,8.119,10.401,7.238,4.971,1.259,-3.601,-3.366,0.0,-6.048,-1.95,-13.012,-7.938,0.452,-22.638,3.601,3.366,0.0,1.555,5.371,-13.004,-0.498,7.057,-22.748
-1.161,0.689,28.013,-1.548,1.783,19.507,-7.467,-3.373,19.217,-3.872,-5.348,10.535,0.21,-9.905,2.935,4.277,7.045,19.803,5.948,8.199,10.418,7.345,4.968,1.319,-3.604,-3.362,0.049,-6.253,-2.068,-12.936,-8.137,0.538,-22.51,3.604,3.362,-0.049,1.358,5.443,-13.008,-0.695,7.112,-22.755
-1.175,0.761,28.067,-1.589,1.729,19.508,-7.486,-3.453,19.217,-3.849,-5.298,10.524,0.548,-10.305,3.397,4.209,7.021,19.8,5.759,8.073,10.383,7.156,4.813,1.294,-3.641,-3.322,0.049,-5.967,-2.012,-12.996,-8.137,0.454,-22.547,3.641,3.322,-0.049,1.475,5.341,-13.031,-0.643,7.024,-22.762
-1.359,0.74,28.017,-1.763,1.732,19.493,-7.67,-3.438,19.202,-4.116,-5.291,10.477,0.575,-10.546,3.727,4.045,7.013,19.784,5.601,8.064,10.368,7.003,4.805,1.28,-3.622,-3.342,0.099,-6.278,-2.038,-12.884,-8.333,0.41,-22.464,3.622,3.342,-0.099,1.39,5.536,-13.042,-0.832,7.211,-22.75
-1.373,0.623,27.931,-1.694,1.836,19.49,-7.534,-3.41,19.201,-4.094,-5.272,10.432,1.118,-10.766,4.28,4.149,7.071,19.883,5.683,8.113,10.461,7.09,4.825,1.384,-3.588,-3.38,0.05,-6.23,-2.076,-12.936,-8.188,0.401,-22.529,3.588,3.38,-0.05,1.329,5.494,-13.001,-0.642,7.195,-22.76
-1.269,0.65,28.005,-1.598,1.787,19.502,-7.506,-3.386,19.309,-3.987,-5.222,10.565,1.439,-11.173,5.058,4.209,7.069,19.794,5.875,8.033,10.387,7.37,4.691,1.343,-3.569,-3.398,0.099,-6.644,-2.104,-12.792,-8.078,0.395,-22.472,3.569,3.398,-0.099,1.647,5.407,-13.121,-0.429,7.116,-22.857
-1.268,0.723,27.94,-1.692,1.831,19.49,-7.588,-3.352,19.199,-4.371,-5.21,10.345,1.619,-11.349,5.696,4.16,7.067,19.687,5.804,8.117,10.285,7.311,4.833,1.222,-3.64,-3.322,0.098,-6.057,-2.131,-12.942,-8.156,0.489,-22.467,3.64,3.322,-0.098,1.743,5.429,-13.109,-0.545,7.118,-22.8
-1.214,0.789,28.037,-1.485,1.895,19.501,-7.388,-3.284,19.307,-4.365,-5.156,10.388,1.948,-11.41,6.36,4.372,7.126,19.697,5.939,8.187,10.284,7.35,4.899,1.207,-3.617,-3.348,0.098,-6.015,-1.846,-12.914,-8.022,0.574,-22.512,3.617,3.348,-0.098,1.372,5.559,-13.035,-0.623,7.192,-22.8
-1.128,0.684,28.045,-1.415,1.828,19.513,-7.36,-3.298,19.219,-4.36,-5.381,10.338,2.188,-11.793,6.992,4.431,7.067,19.808,5.964,8.109,10.386,6.875,4.8,1.253,-3.613,-3.352,0.05,-5.792,-1.846,-13.0,-8.011,0.459,-22.579,3.613,3.352,-0.05,1.821,5.479,-13.072,-0.386,7.171,-22.781
-1.196,0.687,27.96,-1.592,1.832,19.499,-7.555,-3.274,19.206,-4.429,-5.244,10.343,2.308,-11.795,7.719,4.272,7.05,19.792,5.829,8.101,10.376,6.537,4.816,1.217,-3.599,-3.367,0.1,-6.007,-1.972,-12.922,-8.103,0.522,-22.482,3.599,3.367,-0.1,1.478,5.564,-13.061,-0.634,7.218,-22.798
-1.035,0.678,27.951,-1.363,1.935,19.506,-7.256,-3.244,19.118,-4.045,-5.207,10.284,2.921,-11.756,8.343,4.544,7.111,19.704,6.092,8.256,10.298,6.694,4.881,1.163,-3.64,-3.321,0.148,-5.612,-2.025,-12.957,-7.777,0.542,-22.483,3.64,3.321,-0.148,1.693,5.581,-13.125,-0.361,7.18,-22.883
-0.931,0.809,28.004,-1.312,1.945,19.509,-7.257,-3.182,19.214,-4.128,-5.278,10.382,2.945,-11.858,9.018,4.538,7.179,19.809,6.271,8.32,10.434,7.556,5.084,1.32,-3.612,-3.351,0.149,-5.774,-1.856,-12.905,-7.737,0.519,-22.523,3.612,3.351,-0.149,1.879,5.634,-13.153,-0.221,7.208,-22.905
-1.008,0.785,27.995,-1.419,1.891,19.507,-7.259,-3.354,19.212,-4.035,-5.443,10.411,3.045,-12.123,9.76,4.425,7.137,19.703,6.248,8.183,10.334,7.342,4.823,1.24,-3.637,-3.326,0.05,-6.274,-2.022,-12.937,-7.912,0.469,-22.586,3.637,3.326,-0.05,1.763,5.53,-13.048,-0.289,7.07,-22.816
-1.092,0.727,28.051,-1.353,1.882,19.512,-7.284,-3.26,19.217,-4.101,-5.33,10.397,2.98,-12.041,10.478,4.429,7.191,19.811,6.231,8.228,10.436,7.423,4.959,1.322,-3.606,-3.361,0.051,-5.916,-2.05,-12.998,-7.973,0.321,-22.597,3.606,3.361,-0.051,1.787,5.733,-13.026,-0.293,7.135,-22.81
-1.086,0.69,27.954,-1.403,1.94,19.503,-7.22,-3.331,19.207,-4.044,-5.297,10.361,3.007,-12.008,11.024,4.365,7.27,19.699,6.191,8.23,10.321,7.357,5.017,1.183,-3.595,-3.371,0.1,-5.648,-1.969,-12.982,-7.793,0.498,-22.538,3.595,3.371,-0.1,1.854,5.69,-13.096,-0.166,7.22,-22.873
-1.093,0.726,27.933,-1.464,1.939,19.498,-7.296,-3.316,19.203,-4.038,-5.255,10.381,2.931,-11.937,11.784,4.37,7.195,19.696,6.018,8.254,10.295,7.398,5.11,1.163,-3.629,-3.334,0.099,-5.708,-1.922,-12.978,-7.845,0.522,-22.541,3.629,3.334,-0.099,1.793,5.615,-13.089,-0.297,7.189,-22.844
-1.029,0.663,27.915,-1.407,1.935,19.503,-7.238,-3.32,19.208,-3.878,-5.148,10.401,3.082,-11.728,12.262,4.428,7.191,19.7,5.979,8.347,10.295,7.451,5.12,1.206,-3.605,-3.362,0.05,-5.697,-1.831,-13.011,-7.859,0.534,-22.589,3.605,3.362,-0.05,1.881,5.645,-13.055,-0.194,7.207,-22.815
-1.0,0.684,27.85,-1.518,1.925,19.496,-7.367,-3.311,19.201,-3.986,-5.137,10.402,2.844,-11.63,12.928,4.335,7.16,19.692,5.977,8.304,10.301,7.369,4.957,1.243,-3.616,-3.349,0.05,-5.741,-1.917,-13.017,-7.911,0.549,-22.568,3.616,3.349,-0.05,1.84,5.686,-13.038,-0.31,7.314,-22.771
-1.036,0.704,27.909,-1.577,1.836,19.5,-7.362,-3.475,19.301,-3.981,-4.989,10.442,2.689,-11.468,13.396,4.206,7.144,19.798,5.93,8.286,10.422,7.318,5.026,1.331,-3.579,-3.389,0.05,-5.551,-1.976,-13.043,-8.035,0.496,-22.515,3.579,3.389,-0.05,1.969,5.675,-13.069,-0.264,7.232,-22.795
-0.898,0.813,27.785,-1.576,1.987,19.485,-7.324,-3.364,19.284,-3.966,-4.968,10.433,2.532,-11.338,13.951,4.221,7.279,19.783,6.141,8.323,10.433,7.442,5.147,1.3,-3.612,-3.354,0.049,-5.592,-1.833,-13.031,-7.8,0.679,-22.56,3.612,3.354,-0.049,1.638,5.649,-13.016,-0.382,7.225,-22.785
-0.957,0.761,27.9,-1.584,1.832,19.5,-7.384,-3.457,19.202,-4.08,-4.977,10.316,2.299,-11.124,14.403,4.167,7.174,19.8,6.088,8.311,10.461,7.391,5.135,1.329,-3.641,-3.322,0.098,-5.749,-1.9,-12.972,-7.92,0.566,-22.523,3.641,3.322,-0.098,1.746,5.542,-13.09,-0.405,7.17,-22.823
-1.072,0.741,27.885,-1.646,1.85,19.493,-7.433,-3.454,19.194,-4.085,-5.058,10.339,1.976,-11.024,15.12,4.142,7.153,19.791,5.945,8.282,10.428,7.248,4.989,1.337,-3.607,-3.358,0.099,-5.867,-1.865,-12.938,-7.948,0.528,-22.527,3.607,3.358,-0.099,1.907,5.607,-13.113,-0.346,7.175,-22.833
-0.725,0.701,27.992,-1.304,1.785,19.525,-7.13,-3.476,19.229,-3.926,-5.175,10.338,1.964,-10.792,15.718,4.42,7.156,19.821,6.125,8.288,10.439,7.424,4.995,1.348,-3.624,-3.34,0.049,-5.348,-1.627,-13.043,-7.656,0.674,-22.603,3.624,3.34,-0.049,2.044,5.7,-13.058,-0.187,7.177,-22.797
-0.882,0.759,27.984,-1.41,1.828,19.513,-7.245,-3.422,19.218,-4.217,-5.029,10.249,1.424,-10.48,16.049,4.377,7.132,19.812,5.994,8.359,10.427,7.396,5.07,1.349,-3.657,-3.305,0.049,-5.722,-1.797,-13.019,-7.948,0.636,-22.565,3.657,3.305,-0.049,1.789,5.621,-13.028,-0.412,7.235,-22.752
-0.926,0.696,27.936,-1.522,1.779,19.509,-7.305,-3.523,19.112,-4.156,-5.243,10.206,1.08,-10.399,16.624,4.311,7.026,19.903,6.02,8.25,10.534,7.409,4.99,1.444,-3.63,-3.334,0.097,-6.048,-1.917,-12.92,-7.878,0.542,-22.543,3.63,3.334,-0.097,1.471,5.588,-13.042,-0.544,7.083,-22.825
-0.782,0.677,27.92,-1.425,1.788,19.516,-7.37,-3.339,19.221,-4.189,-5.223,10.36,0.718,-10.039,17.282,4.367,7.08,19.913,6.082,8.304,10.545,7.378,5.039,1.442,-3.635,-3.328,0.097,-5.508,-1.805,-12.998,-7.858,0.627,-22.515,3.635,3.328,-0.097,1.659,5.511,-13.083,-0.459,7.038,-22.839
-0.568,0.676,27.862,-1.308,1.838,19.519,-7.191,-3.359,19.227,-3.858,-5.169,10.406,0.738,-9.697,17.725,4.528,7.088,19.815,6.161,8.232,10.422,7.555,5.06,1.302,-3.657,-3.305,0.049,-5.43,-1.878,-13.071,-7.888,0.671,-22.529,3.657,3.305,-0.049,1.917,5.606,-13.049,-0.194,7.133,-22.806
-0.661,0.67,27.837,-1.412,1.828,19.513,-7.35,-3.3,19.12,-4.049,-5.194,10.305,0.014,-9.418,18.106,4.429,7.072,19.808,6.158,8.214,10.432,7.468,5.01,1.311,-3.66,-3.301,0.049,-5.558,-1.756,-13.04,-7.911,0.576,-22.581,3.66,3.301,-0.049,1.89,5.638,-13.038,-0.316,7.252,-22.761
-0.991,0.693,27.675,-1.751,1.942,19.475,-7.655,-3.231,19.178,-4.387,-5.307,10.391,-0.547,-9.07,18.532,4.201,7.061,19.769,5.937,8.202,10.394,7.338,5.03,1.275,-3.666,-3.294,0.049,-5.918,-1.853,-12.996,-8.151,0.563,-22.545,3.666,3.294,-0.049,1.578,5.697,-12.978,-0.623,7.279,-22.707
-0.803,0.583,27.754,-1.419,1.945,19.501,-7.359,-3.187,19.207,-4.132,-5.245,10.4,-0.636,-8.686,18.834,4.523,7.075,19.796,6.251,8.217,10.42,7.545,4.952,1.318,-3.66,-3.302,0.049,-5.761,-1.88,-13.023,-7.924,0.587,-22.575,3.66,3.302,-0.049,1.464,5.591,-12.981,-0.43,7.136,-22.781
-0.772,0.577,27.821,-1.425,1.837,19.511,-7.427,-3.221,19.215,-4.276,-5.187,10.36,-0.86,-8.537,18.863,4.575,6.893,19.907,6.293,8.117,10.539,7.596,4.941,1.407,-3.666,-3.295,0.049,-5.863,-1.671,-12.984,-7.853,0.623,-22.616,3.666,3.295,-0.049,1.673,5.608,-13.01,-0.398,7.238,-22.759
-0.681,0.498,27.747,-1.48,1.775,19.513,-7.546,-3.201,19.116,-4.365,-5.382,10.322,-1.143,-8.404,19.022,4.537,6.816,19.809,6.279,8.052,10.447,7.588,4.875,1.316,-3.725,-3.228,0.049,-5.613,-1.814,-13.056,-7.904,0.545,-22.606,3.725,3.228,-0.049,1.749,5.395,-13.038,-0.456,7.139,-22.738
-0.892,0.474,27.762,-1.583,1.774,19.505,-7.643,-3.216,19.206,-4.623,-5.366,10.349,-1.575,-7.873,19.271,4.414,6.833,19.892,6.058,7.977,10.502,7.449,4.832,1.371,-3.666,-3.294,0.048,-5.976,-1.78,-12.978,-7.984,0.64,-22.576,3.666,3.294,-0.048,1.492,5.549,-12.99,-0.631,7.134,-22.736
-0.801,0.487,27.718,-1.528,1.827,19.504,-7.532,-3.223,19.11,-4.456,-5.413,10.281,-1.592,-7.852,19.283,4.52,6.824,19.895,6.15,7.958,10.501,7.553,4.786,1.382,-3.715,-3.239,0.048,-5.938,-1.927,-13.015,-7.898,0.65,-22.582,3.715,3.239,-0.048,1.732,5.422,-13.033,-0.516,7.059,-22.742
-0.962,0.425,27.749,-1.591,1.783,19.504,-7.691,-3.151,19.11,-4.651,-5.418,10.288,-1.915,-7.611,19.392,4.458,6.78,19.894,6.087,7.914,10.5,7.396,4.826,1.338,-3.718,-3.235,0.049,-6.03,-1.828,-12.989,-8.12,0.666,-22.55,3.718,3.235,-0.049,1.545,5.49,-12.991,-0.72,7.138,-22.694
-0.909,0.38,27.725,-1.576,1.769,19.506,-7.686,-3.16,19.204,-4.658,-5.524,10.404,-2.033,-7.609,19.567,4.468,6.771,19.897,6.187,7.903,10.518,7.588,4.731,1.399,-3.664,-3.298,0.0,-5.863,-1.781,-13.045,-7.974,0.634,-22.622,3.664,3.298,0.0,1.419,5.396,-12.956,-0.635,7.094,-22.698
-1.0,0.394,27.77,-1.51,1.828,19.506,-7.581,-3.141,19.109,-4.582,-5.508,10.3,-2.004,-7.455,19.506,4.504,6.873,19.796,6.037,7.925,10.375,7.419,4.664,1.285,-3.649,-3.314,0.049,-5.814,-2.021,-13.026,-8.101,0.588,-22.511,3.649,3.314,-0.049,1.427,5.413,-13.009,-0.59,7.177,-22.747
-0.838,0.509,27.817,-1.418,1.833,19.512,-7.46,-3.178,19.218,-4.451,-5.329,10.358,-1.745,-7.384,19.503,4.674,6.777,19.907,6.405,7.919,10.532,7.693,4.77,1.388,-3.71,-3.246,0.0,-5.722,-1.811,-13.084,-7.888,0.655,-22.636,3.71,3.246,0.0,1.568,5.364,-12.971,-0.436,7.103,-22.715
-0.914,0.319,27.743,-1.472,1.788,19.512,-7.51,-3.228,19.212,-4.615,-5.484,10.339,-1.788,-7.671,19.417,4.649,6.695,19.904,6.264,7.83,10.507,7.542,4.592,1.393,-3.704,-3.251,0.098,-5.558,-2.061,-13.034,-7.933,0.517,-22.506,3.704,3.251,-0.098,1.707,5.47,-13.075,-0.355,7.042,-22.836
-0.81,0.358,27.813,-1.415,1.721,19.523,-7.508,-3.222,19.128,-4.47,-5.392,10.281,-1.484,-7.593,19.305,4.628,6.732,19.816,6.359,7.874,10.441,7.644,4.636,1.328,-3.71,-3.245,0.048,-5.802,-1.941,-13.037,-8.004,0.673,-22.541,3.71,3.245,-0.048,1.568,5.363,-13.018,-0.468,7.049,-22.766
-0.957,0.306,27.727,-1.527,1.779,19.509,-7.576,-3.218,19.11,-4.537,-5.388,10.264,-1.435,-7.949,19.152,4.611,6.672,19.802,6.262,7.921,10.426,7.631,4.716,1.314,-3.69,-3.269,0.0,-5.871,-1.869,-13.061,-8.085,0.54,-22.616,3.69,3.269,0.0,1.581,5.354,-12.981,-0.47,7.052,-22.724
-0.974,0.449,27.73,-1.528,1.881,19.499,-7.531,-3.17,19.105,-4.572,-5.248,10.209,-1.131,-8.136,18.87,4.564,6.826,19.886,6.223,7.886,10.488,7.501,4.676,1.364,-3.695,-3.262,0.049,-5.792,-1.851,-13.024,-8.09,0.631,-22.541,3.695,3.262,-0.049,1.715,5.558,-13.015,-0.454,7.197,-22.742
-1.073,0.337,27.71,-1.573,1.845,19.499,-7.534,-3.247,19.001,-4.636,-5.211,10.06,-1.162,-8.308,18.635,4.483,6.84,19.792,6.023,7.997,10.385,7.388,4.763,1.282,-3.667,-3.294,0.049,-5.806,-1.905,-13.02,-8.05,0.557,-22.555,3.667,3.294,-0.049,1.583,5.38,-13.034,-0.463,7.029,-22.786
-0.812,0.482,27.718,-1.466,1.881,19.504,-7.449,-3.194,19.116,-4.424,-5.05,10.194,-0.668,-8.388,18.557,4.613,6.842,19.892,6.265,7.901,10.493,7.536,4.691,1.368,-3.71,-3.245,0.049,-5.993,-1.848,-12.995,-7.986,0.676,-22.569,3.71,3.245,-0.049,1.494,5.44,-12.994,-0.488,7.153,-22.748
-0.878,0.445,27.772,-1.527,1.778,19.509,-7.518,-3.279,19.015,-4.555,-5.158,10.077,-0.541,-8.752,18.211,4.556,6.734,19.896,6.194,7.878,10.505,7.482,4.728,1.361,-3.689,-3.268,0.098,-5.886,-1.859,-12.959,-8.053,0.607,-22.51,3.689,3.268,-0.098,1.767,5.525,-13.08,-0.488,7.113,-22.796
-1.037,0.438,27.803,-1.571,1.783,19.505,-7.534,-3.296,18.91,-4.663,-5.201,9.947,-0.317,-9.042,17.792,4.493,6.768,19.797,6.131,7.923,10.407,7.409,4.772,1.262,-3.698,-3.258,0.049,-6.278,-1.867,-12.94,-8.133,0.639,-22.547,3.698,3.258,-0.049,1.463,5.488,-12.985,-0.577,7.05,-22.752
-0.866,0.479,27.889,-1.357,1.789,19.521,-7.269,-3.361,19.028,-4.487,-5.067,9.998,0.184,-9.361,17.409,4.612,6.88,19.919,6.261,8.141,10.544,7.617,4.935,1.43,-3.696,-3.26,0.098,-5.751,-1.966,-12.994,-8.014,0.619,-22.491,3.696,3.26,-0.098,1.63,5.553,-13.051,-0.498,7.103,-22.802
-0.79,0.442,27.902,-1.256,1.785,19.528,-7.23,-3.283,18.946,-4.521,-4.889,9.875,0.478,-9.695,16.738,4.734,6.852,19.924,6.287,8.103,10.531,7.563,4.98,1.377,-3.71,-3.245,0.049,-5.887,-1.846,-13.013,-7.985,0.672,-22.566,3.71,3.245,-0.049,1.508,5.312,-13.018,-0.536,7.088,-22.748
-0.876,0.425,27.869,-1.148,1.946,19.519,-7.132,-3.12,19.034,-4.424,-4.831,9.982,0.93,-10.082,16.223,4.849,7.01,19.816,6.502,8.165,10.428,7.693,5.011,1.273,-3.638,-3.325,0.049,-5.821,-2.033,-13.023,-7.996,0.658,-22.511,3.638,3.325,-0.049,1.532,5.523,-13.012,-0.362,7.148,-22.799
-3.872,-2.389,26.781,-0.97,2.016,19.522,-6.113,-3.896,18.967,-4.03,-5.35,9.707,0.594,-11.501,15.705,4.296,7.827,19.976,5.581,9.0,10.533,6.414,5.862,1.333,-3.193,-3.753,0.113,-5.01,-2.369,-13.005,-6.719,0.168,-22.631,3.193,3.753,-0.113,1.563,6.094,-13.12,0.03,7.741,-22.966
-0.668,0.358,28.001,-1.037,1.723,19.546,-6.98,-3.391,19.057,-4.305,-4.927,9.964,1.441,-10.852,15.166,4.862,6.896,19.942,6.518,8.05,10.555,7.701,4.924,1.389,-3.641,-3.322,0.049,-5.844,-2.02,-13.018,-7.989,0.546,-22.548,3.641,3.322,-0.049,1.874,5.415,-13.08,-0.292,7.055,-22.808
-0.889,0.482,27.836,-1.288,1.935,19.511,-7.191,-3.224,19.018,-4.358,-4.858,9.99,1.507,-11.197,14.53,4.676,7.04,19.811,6.213,8.197,10.403,7.474,5.074,1.247,-3.59,-3.377,0.05,-5.968,-1.971,-12.976,-8.251,0.537,-22.489,3.59,3.377,-0.05,1.61,5.596,-13.029,-0.402,7.205,-22.795
-0.734,0.522,27.838,-1.258,1.892,19.518,-7.153,-3.285,19.121,-4.285,-4.918,10.104,1.681,-11.57,14.022,4.69,7.008,19.918,6.326,8.246,10.537,7.514,5.004,1.412,-3.665,-3.296,0.05,-6.245,-1.81,-12.929,-8.143,0.511,-22.573,3.665,3.296,-0.05,1.462,5.474,-13.0,-0.512,7.096,-22.771
-0.974,0.435,27.854,-1.376,1.847,19.514,-7.276,-3.325,19.118,-4.409,-5.063,10.12,1.731,-11.854,13.493,4.573,6.969,19.808,6.133,8.125,10.405,7.313,4.911,1.268,-3.641,-3.323,0.049,-5.898,-1.945,-13.001,-8.214,0.561,-22.507,3.641,3.323,-0.049,1.319,5.385,-12.998,-0.565,6.998,-22.788
-0.71,0.516,27.904,-1.266,1.789,19.527,-7.224,-3.315,19.128,-4.417,-5.412,10.188,2.025,-12.194,12.96,4.685,6.902,19.918,6.138,8.144,10.508,7.334,4.991,1.353,-3.671,-3.289,0.099,-5.601,-1.812,-12.993,-8.183,0.624,-22.448,3.671,3.289,-0.099,1.687,5.472,-13.084,-0.482,7.112,-22.811
-0.614,0.479,27.828,-1.13,1.917,19.523,-7.027,-3.257,19.118,-4.267,-5.438,10.184,2.165,-12.421,12.431,4.82,7.042,19.723,6.374,8.293,10.331,7.662,5.144,1.187,-3.636,-3.328,0.049,-6.039,-1.816,-12.96,-8.056,0.628,-22.55,3.636,3.328,-0.049,1.503,5.675,-12.982,-0.468,7.297,-22.754
-0.735,0.62,27.941,-1.256,1.838,19.523,-7.146,-3.344,19.126,-4.273,-5.31,10.177,2.19,-12.39,11.991,4.684,6.97,19.817,6.13,8.212,10.407,7.402,5.003,1.281,-3.635,-3.329,0.049,-5.899,-1.836,-12.987,-8.002,0.579,-22.566,3.635,3.329,-0.049,1.568,5.604,-13.005,-0.481,7.223,-22.762
-0.66,0.548,27.864,-1.259,1.843,19.522,-7.096,-3.4,19.129,-4.202,-5.49,10.215,2.43,-12.556,11.351,4.688,6.967,19.823,6.146,8.221,10.415,7.422,5.098,1.26,-3.634,-3.329,0.099,-5.916,-1.931,-12.945,-8.083,0.434,-22.522,3.634,3.329,-0.099,1.644,5.417,-13.098,-0.439,7.0,-22.853
-0.595,0.511,27.886,-1.21,1.794,19.53,-7.049,-3.439,19.039,-4.244,-5.43,10.075,2.382,-12.558,10.761,4.637,7.036,19.726,6.21,8.203,10.326,7.392,5.076,1.16,-3.641,-3.323,0.05,-5.825,-2.137,-13.032,-8.103,0.547,-22.498,3.641,3.323,-0.05,1.731,5.447,-13.056,-0.354,7.107,-22.798
-0.667,0.566,27.97,-1.198,1.776,19.532,-7.093,-3.401,19.136,-4.257,-5.553,10.219,2.344,-12.734,10.472,4.7,6.956,19.83,6.336,8.194,10.449,7.43,5.037,1.283,-3.64,-3.323,0.05,-5.73,-1.912,-13.025,-8.005,0.447,-22.578,3.64,3.323,-0.05,1.778,5.51,-13.052,-0.369,7.138,-22.786
-0.549,0.623,27.913,-1.224,1.798,19.529,-7.04,-3.467,19.134,-4.22,-5.563,10.198,2.506,-12.618,9.783,4.697,6.953,19.824,6.267,8.204,10.435,7.465,4.963,1.311,-3.654,-3.307,0.1,-6.174,-2.02,-12.912,-8.042,0.461,-22.522,3.654,3.307,-0.1,1.713,5.447,-13.098,-0.466,7.104,-22.82
-0.441,0.612,27.944,-1.106,1.79,19.536,-6.917,-3.48,19.141,-4.102,-5.576,10.204,2.634,-12.564,9.206,4.763,7.004,19.836,6.425,8.253,10.462,7.611,5.039,1.326,-3.651,-3.31,0.1,-6.291,-2.016,-12.887,-7.943,0.475,-22.535,3.651,3.31,-0.1,1.744,5.417,-13.108,-0.32,7.114,-22.848
-0.561,0.577,27.882,-1.203,1.834,19.527,-7.047,-3.393,19.037,-4.048,-5.579,10.18,2.552,-12.564,8.497,4.654,7.065,19.727,6.311,8.219,10.339,7.495,5.093,1.174,-3.616,-3.348,0.099,-5.976,-1.869,-12.922,-8.113,0.464,-22.513,3.616,3.348,-0.099,1.62,5.549,-13.079,-0.533,7.098,-22.824
-0.556,0.694,27.903,-1.2,1.883,19.522,-6.998,-3.402,19.126,-4.129,-5.575,10.224,2.412,-12.415,7.855,4.658,7.113,19.722,6.393,8.255,10.348,7.488,5.098,1.182,-3.644,-3.319,0.05,-5.631,-2.014,-13.052,-8.148,0.58,-22.483,3.644,3.319,-0.05,1.797,5.71,-13.018,-0.564,7.287,-22.711
-0.707,0.748,27.903,-1.322,1.901,19.512,-7.12,-3.384,19.116,-4.122,-5.57,10.26,2.208,-12.383,7.311,4.48,7.189,19.81,6.123,8.239,10.408,6.427,5.035,1.198,-3.644,-3.319,0.05,-5.847,-2.017,-13.018,-8.216,0.536,-22.497,3.644,3.319,-0.05,1.384,5.549,-12.982,-0.658,7.157,-22.741
-0.746,0.562,27.937,-1.213,1.848,19.525,-7.012,-3.437,19.128,-4.216,-5.638,10.21,2.068,-12.131,6.53,4.643,7.076,19.825,6.205,8.232,10.422,6.998,5.093,1.218,-3.617,-3.348,0.05,-5.771,-1.97,-13.018,-8.093,0.433,-22.549,3.617,3.348,-0.05,1.503,5.434,-13.03,-0.584,7.076,-22.774
-0.766,0.586,27.935,-1.378,1.739,19.524,-7.177,-3.545,19.127,-4.272,-5.635,10.217,1.628,-12.045,5.825,4.37,7.085,19.818,6.014,8.135,10.417,7.205,4.893,1.292,-3.642,-3.321,0.049,-6.166,-2.132,-12.971,-8.246,0.463,-22.507,3.642,3.321,-0.049,1.397,5.42,-13.005,-0.754,7.048,-22.738
-0.968,0.543,27.957,-1.435,1.747,19.519,-7.225,-3.547,19.122,-4.228,-5.629,10.24,1.368,-11.869,5.246,4.357,7.046,19.817,5.9,8.192,10.409,7.285,5.046,1.278,-3.611,-3.355,0.05,-6.313,-1.966,-12.915,-8.273,0.409,-22.534,3.611,3.355,-0.05,1.391,5.437,-13.013,-0.738,7.054,-22.752
-0.874,0.499,27.81,-1.586,1.72,19.51,-7.343,-3.61,19.11,-4.159,-5.656,10.285,0.993,-11.733,4.655,4.224,6.999,19.806,5.871,8.143,10.416,7.261,4.91,1.316,-3.647,-3.316,0.049,-6.302,-2.012,-12.934,-8.27,0.464,-22.526,3.647,3.316,-0.049,1.075,5.5,-12.93,-0.955,7.076,-22.697
-0.9,0.474,27.95,-1.514,1.606,19.525,-7.352,-3.626,19.024,-4.158,-5.693,10.208,0.673,-11.495,4.029,4.277,6.905,19.823,5.911,8.143,10.442,7.187,5.02,1.288,-3.61,-3.356,0.05,-6.564,-2.166,-12.88,-8.426,0.441,-22.458,3.61,3.356,-0.05,1.316,5.514,-12.988,-0.86,7.086,-22.724
-0.912,0.433,27.873,-1.474,1.717,19.519,-7.224,-3.613,19.029,-3.807,-5.559,10.269,0.766,-11.102,3.67,4.333,6.992,19.914,5.886,8.138,10.508,7.178,4.901,1.396,-3.597,-3.37,0.0,-6.162,-1.947,-12.988,-8.476,0.331,-22.552,3.597,3.37,0.0,1.33,5.599,-12.931,-0.833,7.068,-22.686
-1.041,0.386,27.988,-1.467,1.618,19.528,-7.293,-3.628,19.036,-3.874,-5.595,10.282,0.449,-10.642,3.138,4.313,6.923,19.925,5.851,8.069,10.517,7.232,4.923,1.385,-3.58,-3.388,0.0,-6.123,-2.073,-13.004,-8.383,0.388,-22.535,3.58,3.388,0.0,1.367,5.471,-12.964,-0.804,7.043,-22.702
-0.643,0.374,27.969,-1.246,1.599,19.544,-7.095,-3.622,19.055,-3.619,-5.542,10.313,0.427,-10.302,2.818,4.561,6.882,19.842,6.111,8.028,10.435,7.406,4.878,1.292,-3.595,-3.373,-0.05,-6.266,-2.059,-13.029,-8.274,0.36,-22.626,3.595,3.373,0.05,1.306,5.389,-12.912,-0.704,7.034,-22.672
-0.742,0.458,28.031,-1.201,1.669,19.541,-6.942,-3.67,19.051,-3.625,-5.52,10.232,0.258,-9.935,2.446,4.597,6.954,19.938,6.238,8.099,10.547,7.53,4.949,1.404,-3.59,-3.378,-0.049,-6.024,-2.07,-13.075,-8.123,0.55,-22.601,3.59,3.378,0.049,1.607,5.449,-12.954,-0.578,7.021,-22.689
-0.742,0.458,28.031,-1.201,1.669,19.541,-6.992,-3.617,19.056,-3.827,-5.335,10.155,-0.198,-9.724,2.233,4.597,6.954,19.938,6.238,8.099,10.547,7.53,4.949,1.404,-3.59,-3.378,-0.049,-6.236,-2.074,-13.034,-8.123,0.557,-22.601,3.59,3.378,0.049,1.689,5.37,-12.979,-0.459,7.078,-22.698
-0.702,0.403,28.059,-1.148,1.62,19.549,-6.884,-3.725,19.058,-3.786,-5.361,10.118,-0.386,-9.427,1.927,4.591,6.969,19.942,6.26,8.135,10.558,7.538,5.012,1.404,-3.588,-3.38,0.0,-5.999,-2.082,-13.031,-7.994,0.442,-22.605,3.588,3.38,0.0,1.577,5.485,-12.994,-0.463,7.014,-22.766
-0.625,0.466,28.05,-1.154,1.62,19.548,-6.905,-3.709,19.059,-3.792,-5.344,10.124,-0.577,-9.318,1.813,4.653,6.895,19.944,6.313,8.144,10.57,7.707,4.999,1.44,-3.648,-3.315,0.0,-6.16,-2.029,-13.013,-8.076,0.524,-22.595,3.648,3.315,0.0,1.642,5.403,-12.997,-0.624,7.132,-22.686
-0.638,0.296,27.997,-1.128,1.6,19.552,-6.896,-3.701,18.967,-3.848,-5.427,10.027,-0.828,-9.255,1.576,4.652,6.905,19.949,6.295,8.155,10.572,7.658,4.949,1.459,-3.63,-3.334,-0.049,-5.995,-2.105,-13.096,-8.165,0.485,-22.613,3.63,3.334,0.049,1.76,5.425,-12.967,-0.549,7.06,-22.663
-0.583,0.399,28.085,-1.147,1.508,19.558,-6.941,-3.773,19.063,-4.074,-5.51,10.065,-0.912,-9.355,1.674,4.699,6.741,19.95,6.353,7.991,10.575,7.741,4.845,1.444,-3.689,-3.269,-0.048,-5.94,-1.937,-13.105,-7.801,0.442,-22.742,3.689,3.269,0.048,1.577,5.354,-12.932,-0.558,6.971,-22.67
-0.715,0.352,28.016,-1.127,1.653,19.547,-6.844,-3.703,18.957,-3.89,-5.33,9.967,-0.858,-9.281,1.577,4.705,6.899,19.949,6.442,8.147,10.588,7.798,5.054,1.434,-3.652,-3.31,-0.048,-5.867,-1.771,-13.088,-7.877,0.673,-22.679,3.652,3.31,0.048,1.54,5.526,-12.911,-0.568,7.053,-22.669
-0.679,0.354,27.995,-1.039,1.723,19.546,-6.831,-3.552,18.964,-3.881,-5.162,9.97,-0.712,-9.219,1.682,4.767,6.998,19.95,6.52,8.245,10.592,7.9,5.127,1.451,-3.693,-3.264,0.048,-6.147,-1.838,-12.961,-8.007,0.643,-22.573,3.693,3.264,-0.048,1.508,5.416,-13.006,-0.553,7.036,-22.76
-0.701,0.374,27.994,-1.086,1.718,19.544,-6.868,-3.577,19.057,-3.874,-5.219,10.083,-0.586,-9.387,1.897,4.757,6.954,19.945,6.5,8.201,10.585,7.885,5.056,1.454,-3.661,-3.301,0.0,-5.763,-1.879,-13.072,-7.987,0.657,-22.591,3.661,3.301,0.0,1.637,5.422,-12.989,-0.507,7.051,-22.723
-0.914,0.228,28.106,-1.136,1.558,19.554,-6.955,-3.686,18.965,-3.972,-5.329,9.987,-0.579,-9.721,1.963,4.638,6.861,20.052,6.359,8.098,10.686,7.645,5.036,1.513,-3.603,-3.364,0.0,-5.82,-1.934,-13.052,-7.891,0.561,-22.617,3.603,3.364,0.0,1.603,5.469,-12.995,-0.49,6.986,-22.759
-0.971,0.184,28.103,-1.196,1.512,19.554,-7.017,-3.731,18.965,-3.998,-5.283,9.983,-0.264,-9.883,2.231,4.582,6.818,19.952,6.335,8.077,10.596,7.611,5.042,1.412,-3.605,-3.362,0.0,-6.04,-2.044,-13.025,-8.092,0.428,-22.6,3.605,3.362,0.0,1.705,5.486,-13.007,-0.542,6.998,-22.737
-1.059,0.273,27.992,-1.303,1.668,19.535,-7.073,-3.629,18.951,-3.981,-5.16,9.99,-0.039,-10.06,2.531,4.583,6.857,19.932,6.243,8.117,10.559,7.617,5.087,1.388,-3.634,-3.33,0.05,-6.264,-1.918,-12.927,-8.132,0.484,-22.557,3.634,3.33,-0.05,1.634,5.548,-13.026,-0.462,7.065,-22.789
-0.98,0.201,27.988,-1.407,1.5,19.541,-7.284,-3.68,18.959,-4.286,-5.216,9.967,0.194,-10.414,3.031,4.43,6.742,19.934,6.079,7.991,10.558,7.463,4.845,1.427,-3.66,-3.301,0.049,-6.21,-1.986,-12.954,-8.184,0.514,-22.538,3.66,3.301,-0.049,1.571,5.37,-13.036,-0.762,7.017,-22.723
-1.24,0.249,27.845,-1.63,1.666,19.511,-7.507,-3.514,18.928,-4.484,-5.173,9.966,0.325,-10.679,3.505,4.261,6.848,19.907,5.91,8.098,10.531,7.283,4.979,1.389,-3.638,-3.326,0.05,-6.275,-2.022,-12.936,-8.458,0.467,-22.478,3.638,3.326,-0.05,1.29,5.535,-12.97,-0.841,7.073,-22.721
-1.285,0.297,27.872,-1.642,1.679,19.508,-7.477,-3.558,19.017,-4.658,-5.229,9.992,0.376,-11.133,4.077,4.249,6.86,19.905,5.913,8.121,10.533,7.201,4.971,1.389,-3.637,-3.325,0.1,-6.571,-2.144,-12.835,-8.433,0.463,-22.413,3.637,3.325,-0.1,1.421,5.52,-13.045,-0.899,7.075,-22.751
-1.235,0.217,27.861,-1.574,1.671,19.515,-7.443,-3.519,18.931,-4.537,-5.292,9.953,0.828,-11.529,4.708,4.308,6.862,19.912,5.951,8.112,10.535,7.234,4.962,1.391,-3.606,-3.359,0.101,-6.093,-2.072,-12.917,-8.373,0.411,-22.437,3.606,3.359,-0.101,1.494,5.575,-13.06,-0.783,7.186,-22.767
-1.127,0.224,27.877,-1.475,1.671,19.522,-7.414,-3.446,19.033,-4.602,-5.331,10.047,1.157,-11.715,5.436,4.374,6.901,19.923,6.105,8.137,10.559,7.402,4.871,1.458,-3.666,-3.294,0.099,-6.184,-1.998,-12.912,-8.287,0.52,-22.464,3.666,3.294,-0.099,1.444,5.489,-13.044,-0.735,7.141,-22.766
-0.954,0.391,27.891,-1.477,1.68,19.522,-7.407,-3.449,19.031,-4.503,-5.328,10.074,1.496,-11.962,6.176,4.41,6.866,19.919,6.042,8.104,10.538,7.42,4.871,1.437,-3.66,-3.301,0.099,-6.253,-1.91,-12.887,-8.122,0.493,-22.517,3.66,3.301,-0.099,1.54,5.403,-13.076,-0.66,7.096,-22.787
-1.051,0.263,27.842,-1.521,1.671,19.519,-7.447,-3.462,19.028,-4.554,-5.447,10.09,1.672,-12.212,6.824,4.362,6.862,19.916,5.992,8.1,10.535,7.287,4.922,1.402,-3.632,-3.331,0.1,-6.156,-2.025,-12.909,-8.333,0.464,-22.452,3.632,3.331,-0.1,1.615,5.452,-13.09,-0.675,7.154,-22.778
-0.984,0.314,27.841,-1.408,1.77,19.519,-7.238,-3.472,19.027,-4.442,-5.463,10.06,2.147,-12.199,7.528,4.483,6.958,19.817,6.147,8.124,10.432,6.844,4.954,1.231,-3.584,-3.383,0.102,-5.916,-2.063,-12.941,-8.179,0.397,-22.472,3.584,3.383,-0.102,1.682,5.622,-13.09,-0.553,7.26,-22.802
-0.788,0.455,27.91,-1.319,1.739,19.528,-7.259,-3.387,19.135,-4.284,-5.345,10.218,2.417,-12.172,8.302,4.577,6.922,19.825,6.227,8.171,10.449,6.529,4.877,1.27,-3.665,-3.293,0.151,-5.741,-2.106,-12.948,-8.104,0.448,-22.429,3.665,3.293,-0.151,1.659,5.511,-13.127,-0.514,7.244,-22.836
-0.721,0.454,27.89,-1.308,1.739,19.528,-7.12,-3.522,19.035,-4.205,-5.421,10.086,2.576,-12.294,8.678,4.565,6.947,19.827,6.387,8.193,10.483,7.37,4.943,1.336,-3.65,-3.309,0.152,-5.779,-1.93,-12.92,-7.971,0.48,-22.48,3.65,3.309,-0.152,1.836,5.573,-13.148,-0.356,7.169,-22.877
-0.601,0.485,27.898,-1.252,1.726,19.533,-7.14,-3.459,19.136,-4.141,-5.437,10.231,2.704,-12.336,9.378,4.635,6.912,19.93,6.36,8.149,10.566,7.451,4.99,1.399,-3.687,-3.27,0.1,-5.894,-1.959,-12.966,-7.846,0.518,-22.56,3.687,3.27,-0.1,2.035,5.611,-13.104,-0.265,7.155,-22.817
-0.718,0.493,27.868,-1.313,1.788,19.524,-7.242,-3.341,19.033,-4.131,-5.101,10.121,2.606,-12.157,10.121,4.577,6.978,19.822,6.224,8.227,10.445,7.315,5.069,1.278,-3.635,-3.328,0.1,-5.824,-1.919,-12.958,-8.003,0.57,-22.501,3.635,3.328,-0.1,1.878,5.535,-13.114,-0.322,7.228,-22.825
-0.753,0.41,27.885,-1.311,1.735,19.529,-7.188,-3.463,19.139,-4.105,-5.1,10.194,2.567,-12.195,10.777,4.575,6.928,19.827,6.234,8.189,10.454,7.305,5.086,1.266,-3.605,-3.36,0.1,-5.793,-2.058,-12.97,-7.937,0.608,-22.473,3.605,3.36,-0.1,1.736,5.564,-13.098,-0.401,7.193,-22.834
-0.692,0.517,27.801,-1.424,1.779,19.517,-7.329,-3.387,19.121,-4.205,-5.252,10.235,2.553,-12.202,11.338,4.431,7.008,19.811,5.9,8.166,10.393,7.293,5.021,1.263,-3.646,-3.316,0.1,-5.942,-2.025,-12.953,-8.045,0.594,-22.477,3.646,3.316,-0.1,1.866,5.653,-13.087,-0.448,7.196,-22.796
-0.331,0.821,27.641,-1.647,1.777,19.499,-7.768,-3.132,19.131,-4.326,-4.869,10.337,2.835,-11.31,11.891,4.528,6.626,19.778,6.368,7.87,10.436,7.578,4.745,1.274,-3.841,-3.088,0.093,-15.586,-2.471,-6.151,-15.586,0.234,-15.882,3.841,3.088,-0.093,1.411,5.462,-12.968,-0.946,6.958,-22.674
-0.748,0.461,27.798,-1.422,1.779,19.517,-7.265,-3.449,19.027,-4.203,-5.124,10.082,2.515,-11.875,12.197,4.482,6.953,19.814,6.152,8.213,10.443,7.326,5.113,1.267,-3.643,-3.319,0.1,-5.599,-1.821,-12.986,-7.943,0.605,-22.506,3.643,3.319,-0.1,2.009,5.622,-13.113,-0.349,7.28,-22.792
-0.707,0.534,27.849,-1.43,1.734,19.52,-7.277,-3.497,19.128,-4.144,-5.149,10.203,2.367,-11.906,12.873,4.521,6.854,19.814,5.987,8.107,10.408,7.268,4.984,1.254,-3.671,-3.288,0.101,-5.964,-1.998,-12.952,-8.049,0.496,-22.515,3.671,3.288,-0.101,1.775,5.509,-13.092,-0.468,7.226,-22.789
-0.522,0.454,27.913,-1.21,1.677,19.54,-7.115,-3.488,19.145,-4.092,-4.809,10.127,2.272,-11.502,13.272,4.645,6.906,19.834,6.318,8.167,10.464,7.398,5.063,1.277,-3.696,-3.261,0.049,-5.561,-1.751,-13.048,-7.887,0.652,-22.578,3.696,3.261,-0.049,1.68,5.48,-13.023,-0.392,7.19,-22.759
-0.975,0.449,27.804,-1.536,1.792,19.507,-7.427,-3.39,19.11,-4.559,-4.917,10.075,1.673,-11.424,13.819,4.309,7.031,19.808,5.958,8.28,10.431,7.138,5.153,1.265,-3.638,-3.326,0.05,-6.008,-1.941,-12.979,-8.191,0.548,-22.521,3.638,3.326,-0.05,1.924,5.702,-13.04,-0.473,7.254,-22.727
-0.79,0.465,27.805,-1.515,1.716,19.515,-7.345,-3.526,19.024,-4.576,-4.951,9.941,1.429,-11.353,14.201,4.377,6.908,19.714,5.943,8.171,10.325,7.218,5.048,1.171,-3.662,-3.298,0.101,-6.046,-1.903,-12.925,-8.273,0.529,-22.471,3.662,3.298,-0.101,1.779,5.633,-13.074,-0.52,7.177,-22.787
-0.553,0.575,27.941,-1.304,1.664,19.535,-7.142,-3.569,19.045,-4.353,-4.67,9.923,1.258,-10.968,14.826,4.541,6.904,19.83,6.207,8.165,10.458,7.389,5.038,1.292,-3.689,-3.268,0.098,-5.869,-1.869,-12.963,-7.883,0.678,-22.526,3.689,3.268,-0.098,1.687,5.712,-13.034,-0.464,7.182,-22.792
-1.654,-0.141,28.273,-1.007,1.629,19.556,-6.141,-4.291,19.001,-5.503,-9.899,26.769,4.253,-9.899,26.769,4.081,7.605,19.892,5.288,8.875,10.451,6.27,5.74,1.264,-3.247,-3.707,0.114,-5.019,-2.616,-13.038,-6.518,0.083,-22.655,3.247,3.707,-0.114,1.531,6.046,-13.109,-0.061,7.692,-22.946
-0.651,0.472,27.995,-1.317,1.569,19.542,-7.209,-3.604,19.057,-4.544,-4.698,9.897,0.755,-10.411,15.769,4.533,6.803,19.837,6.186,8.147,10.474,7.366,4.933,1.338,-3.693,-3.265,0.049,-5.862,-1.876,-13.015,-7.988,0.666,-22.556,3.693,3.265,-0.049,1.763,5.617,-13.013,-0.488,7.235,-22.724
-0.766,0.439,27.987,-1.43,1.526,19.538,-7.354,-3.599,18.949,-4.481,-4.912,9.882,0.313,-10.396,16.373,4.406,6.777,19.833,6.05,8.121,10.469,7.224,4.906,1.332,-3.71,-3.244,0.099,-6.078,-1.964,-12.941,-8.048,0.536,-22.526,3.71,3.244,-0.099,1.665,5.611,-13.042,-0.493,7.172,-22.785
-0.678,0.453,27.904,-1.464,1.564,19.532,-7.385,-3.576,19.04,-4.449,-4.872,9.99,0.091,-10.141,16.831,4.41,6.771,19.825,6.048,8.116,10.46,7.314,4.905,1.334,-3.653,-3.308,0.1,-5.713,-1.907,-12.981,-8.01,0.6,-22.491,3.653,3.308,-0.1,1.806,5.607,-13.085,-0.326,7.236,-22.821
-0.758,0.434,27.937,-1.576,1.456,19.532,-7.505,-3.682,19.138,-4.495,-4.961,10.11,-0.346,-9.849,17.464,4.35,6.606,19.821,5.897,7.952,10.441,7.169,4.829,1.286,-3.704,-3.251,0.098,-5.892,-1.949,-12.972,-7.983,0.57,-22.527,3.704,3.251,-0.098,1.532,5.523,-13.037,-0.493,7.112,-22.804
-0.74,0.413,27.94,-1.358,1.618,19.535,-7.277,-3.524,19.053,-4.37,-4.912,10.008,-0.501,-9.309,17.811,4.615,6.705,19.925,6.162,8.051,10.544,7.337,4.924,1.378,-3.629,-3.334,0.099,-6.217,-1.943,-12.889,-7.788,0.625,-22.529,3.629,3.334,-0.099,1.684,5.723,-13.053,-0.328,7.219,-22.837
-0.784,0.467,27.856,-1.51,1.654,19.521,-7.489,-3.417,19.036,-4.583,-5.013,10.024,-0.927,-8.955,18.166,4.43,6.786,19.816,6.076,8.13,10.452,7.252,4.916,1.316,-3.686,-3.271,0.099,-5.897,-1.96,-12.967,-8.115,0.679,-22.46,3.686,3.271,-0.099,1.229,5.589,-12.979,-0.69,7.238,-22.756
-0.515,0.547,27.793,-1.468,1.667,19.523,-7.455,-3.394,19.029,-4.548,-4.99,10.018,-1.186,-8.65,18.413,4.519,6.745,19.815,6.275,8.099,10.472,7.454,4.971,1.306,-3.711,-3.244,0.049,-5.918,-1.717,-12.993,-7.911,0.807,-22.568,3.711,3.244,-0.049,1.813,5.711,-12.996,-0.409,7.337,-22.713
-0.464,0.326,27.826,-1.344,1.553,19.542,-7.359,-3.475,19.05,-4.503,-5.159,10.039,-1.383,-8.368,18.708,4.625,6.652,19.834,6.26,7.996,10.469,7.432,4.868,1.302,-3.699,-3.257,0.049,-5.803,-1.825,-13.021,-7.869,0.67,-22.587,3.699,3.257,-0.049,1.614,5.568,-12.996,-0.437,7.2,-22.749
-0.591,0.375,27.932,-1.361,1.511,19.544,-7.393,-3.506,19.151,-4.626,-5.296,10.133,-1.555,-8.081,18.964,4.617,6.593,19.933,6.166,7.939,10.553,7.343,4.812,1.386,-3.733,-3.217,0.099,-5.942,-2.014,-12.977,-8.012,0.582,-22.516,3.733,3.217,-0.099,1.524,5.525,-13.025,-0.457,7.159,-22.793
-0.597,0.365,27.834,-1.453,1.552,19.534,-7.476,-3.475,19.141,-4.744,-5.249,10.108,-1.704,-7.896,18.993,4.519,6.647,19.826,6.063,7.994,10.445,7.332,4.87,1.29,-3.702,-3.255,0.049,-5.793,-1.833,-13.024,-7.985,0.68,-22.558,3.702,3.255,-0.049,1.9,5.61,-13.03,-0.441,7.188,-22.727
-0.533,0.395,27.791,-1.5,1.548,19.531,-7.528,-3.474,19.129,-4.812,-5.448,10.134,-1.867,-7.879,19.112,4.512,6.595,19.82,6.042,7.836,10.423,7.324,4.774,1.248,-3.722,-3.231,0.097,-5.379,-1.911,-13.049,-7.973,0.677,-22.46,3.722,3.231,-0.097,1.524,5.538,-13.026,-0.542,7.182,-22.775
-0.767,0.385,27.703,-1.638,1.666,19.51,-7.643,-3.383,19.115,-4.988,-5.262,10.081,-1.907,-7.794,18.985,4.457,6.614,19.8,6.004,7.854,10.405,7.302,4.792,1.233,-3.695,-3.262,0.049,-6.006,-1.748,-12.977,-8.227,0.661,-22.53,3.695,3.262,-0.049,1.244,5.561,-12.934,-0.699,7.222,-22.705
-1.812,-0.291,28.144,-1.15,1.677,19.544,-2.191,-3.682,25.192,7.411,-3.682,25.192,17.167,-3.682,25.192,4.113,7.499,19.885,5.277,8.841,10.449,6.241,5.706,1.26,-3.182,-3.761,0.17,-4.908,-2.462,-12.969,-6.625,0.127,-22.58,3.182,3.761,-0.17,1.608,6.066,-13.19,-0.019,7.631,-23.034
-0.648,0.377,27.766,-1.456,1.671,19.524,-7.467,-3.37,19.13,-4.869,-5.134,10.056,-1.391,-7.876,18.749,4.6,6.666,19.817,6.137,8.012,10.435,7.399,4.889,1.278,-3.693,-3.263,0.098,-5.744,-1.862,-12.984,-8.01,0.622,-22.507,3.693,3.263,-0.098,1.568,5.502,-13.051,-0.536,7.182,-22.785
-0.404,0.447,27.813,-1.288,1.664,19.536,-7.391,-3.258,19.045,-4.555,-5.145,10.067,-1.019,-8.054,18.683,4.768,6.658,19.829,6.29,7.993,10.443,7.553,4.869,1.287,-3.716,-3.237,0.097,-5.678,-1.931,-13.008,-7.815,0.636,-22.539,3.716,3.237,-0.097,1.717,5.473,-13.071,-0.373,7.158,-22.807
-0.498,0.373,27.794,-1.363,1.627,19.534,-7.426,-3.344,19.049,-4.765,-5.141,9.999,-0.967,-8.192,18.452,4.663,6.658,19.829,6.207,8.005,10.449,7.476,4.881,1.293,-3.728,-3.223,0.099,-5.445,-1.838,-13.033,-8.088,0.466,-22.504,3.728,3.223,-0.099,1.687,5.482,-13.062,-0.477,7.134,-22.788
-0.703,0.375,27.798,-1.514,1.614,19.524,-7.581,-3.361,19.135,-4.822,-5.152,10.114,-0.803,-8.308,18.425,4.459,6.708,19.817,6.019,7.971,10.427,7.288,4.848,1.272,-3.705,-3.251,0.05,-6.099,-1.845,-12.973,-8.193,0.57,-22.554,3.705,3.251,-0.05,1.503,5.559,-12.978,-0.629,7.188,-22.715
-0.645,0.412,27.809,-1.503,1.602,19.526,-7.522,-3.422,19.035,-4.836,-5.235,9.997,-0.462,-8.741,17.983,4.47,6.695,19.819,6.095,7.934,10.437,7.278,4.779,1.28,-3.704,-3.25,0.1,-5.993,-1.843,-12.942,-8.193,0.567,-22.5,3.704,3.25,-0.1,1.425,5.519,-13.021,-0.689,7.199,-22.753
-0.736,0.446,27.749,-1.532,1.725,19.513,-7.529,-3.335,19.126,-4.892,-5.17,10.078,-0.277,-8.99,17.778,4.515,6.724,19.904,6.062,7.964,10.509,7.355,4.814,1.366,-3.721,-3.232,0.099,-5.909,-1.833,-12.961,-8.13,0.576,-22.514,3.721,3.232,-0.099,1.216,5.476,-12.983,-0.741,7.149,-22.749
-0.602,0.504,27.669,-1.562,1.76,19.508,-7.496,-3.364,19.017,-4.892,-5.079,9.936,-0.04,-9.282,17.283,4.475,6.777,19.802,6.106,8.109,10.434,7.291,4.867,1.308,-3.709,-3.245,0.098,-5.703,-1.821,-12.991,-8.012,0.684,-22.498,3.709,3.245,-0.098,1.402,5.531,-13.011,-0.692,7.186,-22.752
-0.629,0.45,27.786,-1.476,1.671,19.522,-7.419,-3.442,19.033,-4.852,-5.09,9.928,0.363,-9.642,16.804,4.515,6.738,19.91,6.06,7.978,10.515,7.253,4.824,1.36,-3.667,-3.292,0.099,-6.009,-1.864,-12.931,-8.076,0.607,-22.503,3.667,3.292,-0.099,1.561,5.602,-13.043,-0.667,7.228,-22.758
-0.753,0.53,27.844,-1.414,1.774,19.518,-7.398,-3.292,19.033,-4.841,-5.046,9.946,0.638,-9.981,16.334,4.53,6.902,19.812,6.085,8.154,10.42,7.262,4.939,1.284,-3.688,-3.268,0.148,-5.865,-1.656,-12.89,-7.978,0.654,-22.492,3.688,3.268,-0.148,1.472,5.575,-13.073,-0.674,7.203,-22.807
-0.766,0.522,27.849,-1.409,1.774,19.518,-7.287,-3.415,19.032,-4.728,-4.956,9.906,0.976,-10.245,15.796,4.526,6.912,19.813,6.172,8.067,10.424,7.363,5.001,1.239,-3.682,-3.274,0.148,-6.208,-1.86,-12.849,-8.073,0.645,-22.454,3.682,3.274,-0.148,1.59,5.696,-13.073,-0.63,7.243,-22.804
-0.514,0.521,27.966,-1.195,1.665,19.542,-7.18,-3.401,19.057,-4.56,-4.973,9.955,1.496,-10.492,15.253,4.693,6.85,19.931,6.237,7.996,10.524,7.432,4.93,1.339,-3.689,-3.268,0.098,-6.008,-1.743,-12.925,-7.777,0.664,-22.572,3.689,3.268,-0.098,1.786,5.621,-13.066,-0.501,7.233,-22.77
-0.854,0.454,27.893,-1.535,1.617,19.522,-7.388,-3.6,19.033,-4.861,-5.177,9.905,1.438,-10.915,14.657,4.37,6.79,19.813,6.028,8.04,10.438,7.214,4.913,1.273,-3.67,-3.289,0.097,-5.863,-1.89,-12.962,-7.976,0.627,-22.512,3.67,3.289,-0.097,1.423,5.501,-13.034,-0.797,7.114,-22.754
-0.716,0.442,27.81,-1.487,1.676,19.521,-7.396,-3.487,19.134,-4.68,-5.037,10.055,1.761,-11.204,14.015,4.428,6.836,19.817,6.184,8.083,10.46,7.383,4.929,1.306,-3.675,-3.282,0.148,-6.121,-1.974,-12.875,-7.988,0.506,-22.486,3.675,3.282,-0.148,1.575,5.574,-13.096,-0.62,7.145,-22.828
-0.882,0.589,27.963,-1.486,1.675,19.521,-7.443,-3.423,19.033,-4.678,-5.115,9.995,2.174,-11.291,13.172,4.375,6.897,19.815,6.036,8.146,10.441,7.224,5.02,1.275,-3.675,-3.282,0.148,-6.313,-1.882,-12.828,-7.982,0.632,-22.466,3.675,3.282,-0.148,1.427,5.607,-13.065,-0.718,7.223,-22.801
-0.853,0.581,27.917,-1.538,1.671,19.518,-7.443,-3.487,19.034,-4.59,-4.94,9.981,2.364,-11.321,12.452,4.324,6.892,19.811,5.905,8.155,10.425,7.18,5.059,1.261,-3.651,-3.31,0.1,-6.271,-1.92,-12.882,-8.173,0.608,-22.473,3.651,3.31,-0.1,1.683,5.698,-13.051,-0.688,7.275,-22.741
-0.723,0.523,27.912,-1.36,1.717,19.527,-7.255,-3.46,19.139,-4.461,-5.22,10.123,2.513,-11.755,12.085,4.539,6.89,19.923,6.098,8.141,10.531,7.367,5.045,1.367,-3.641,-3.321,0.098,-6.003,-1.992,-12.939,-7.961,0.585,-22.506,3.641,3.321,-0.098,1.63,5.54,-13.073,-0.614,7.177,-22.783
-0.664,0.557,27.87,-1.409,1.717,19.523,-7.247,-3.524,19.13,-4.331,-5.296,10.155,2.675,-11.981,11.344,4.431,6.963,19.818,5.903,8.228,10.415,7.353,5.054,1.304,-3.659,-3.301,0.098,-5.67,-1.976,-12.998,-7.848,0.613,-22.514,3.659,3.301,-0.098,1.656,5.52,-13.074,-0.549,7.134,-22.797
-0.709,0.632,27.948,-1.426,1.68,19.525,-7.213,-3.609,19.039,-4.471,-5.411,10.016,2.544,-12.18,10.434,4.366,6.979,19.817,5.924,8.136,10.414,7.213,4.986,1.27,-3.64,-3.322,0.1,-6.264,-2.028,-12.89,-8.046,0.506,-22.503,3.64,3.322,-0.1,1.501,5.555,-13.052,-0.552,7.175,-22.807
-0.746,0.672,27.922,-1.473,1.721,19.518,-7.273,-3.564,19.13,-4.314,-5.353,10.172,2.757,-12.07,9.926,4.379,6.952,19.813,6.049,8.213,10.441,7.223,5.113,1.265,-3.642,-3.318,0.147,-5.831,-1.919,-12.912,-7.98,0.646,-22.441,3.642,3.318,-0.147,1.533,5.628,-13.091,-0.72,7.106,-22.824
-0.906,0.616,28.004,-1.418,1.717,19.523,-7.275,-3.504,19.131,-4.56,-5.501,10.14,2.657,-11.991,9.151,4.39,6.997,19.82,6.048,8.246,10.445,7.235,5.12,1.279,-3.621,-3.343,0.099,-6.234,-1.847,-12.872,-8.065,0.63,-22.49,3.621,3.343,-0.099,1.411,5.632,-13.029,-0.717,7.136,-22.787
-0.71,0.637,27.998,-1.308,1.722,19.53,-7.152,-3.514,19.145,-4.412,-5.424,10.143,2.793,-11.748,8.326,4.491,7.012,19.827,5.859,8.267,10.407,7.247,5.122,1.276,-3.616,-3.349,0.05,-5.834,-1.93,-13.003,-7.946,0.484,-22.58,3.616,3.349,-0.05,1.625,5.663,-13.011,-0.546,7.143,-22.763
-0.738,0.625,28.005,-1.305,1.726,19.53,-7.134,-3.526,19.144,-4.331,-5.411,10.156,2.637,-11.808,7.766,4.481,7.032,19.828,5.936,8.285,10.42,6.43,5.14,1.198,-3.606,-3.359,0.1,-6.134,-2.053,-12.909,-7.872,0.535,-22.515,3.606,3.359,-0.1,1.512,5.669,-13.045,-0.538,7.131,-22.826
-0.901,0.573,28.043,-1.455,1.606,19.529,-7.333,-3.591,19.14,-4.688,-5.528,10.115,2.316,-11.544,6.962,4.273,6.974,19.825,5.632,8.229,10.403,6.426,5.062,1.21,-3.579,-3.389,0.05,-6.101,-1.976,-12.948,-8.214,0.567,-22.491,3.579,3.389,-0.05,1.646,5.65,-13.029,-0.733,7.251,-22.713
-0.708,0.637,28.009,-1.415,1.614,19.532,-7.259,-3.621,19.139,-4.529,-5.639,10.157,2.102,-11.676,6.314,4.326,6.967,19.827,5.787,8.221,10.42,6.676,5.084,1.224,-3.613,-3.353,0.05,-5.937,-2.043,-12.996,-8.034,0.577,-22.522,3.613,3.353,-0.05,1.414,5.642,-12.981,-0.688,7.135,-22.746
-0.789,0.599,27.947,-1.528,1.617,19.523,-7.372,-3.617,19.13,-4.642,-5.635,10.148,1.754,-11.439,5.61,4.214,6.97,19.818,5.676,8.224,10.411,7.05,5.105,1.269,-3.613,-3.352,0.099,-6.148,-1.938,-12.896,-8.132,0.459,-22.505,3.613,3.352,-0.099,1.546,5.737,-13.036,-0.734,7.236,-22.76
-1.014,0.6,27.888,-1.752,1.624,19.504,-7.539,-3.666,19.017,-4.369,-5.675,10.179,1.517,-11.251,4.753,3.989,6.978,19.799,5.544,8.229,10.407,6.93,5.084,1.276,-3.612,-3.353,0.099,-6.402,-1.976,-12.848,-8.184,0.557,-22.461,3.612,3.353,-0.099,1.19,5.635,-12.992,-0.943,7.173,-22.744
-0.923,0.644,27.948,-1.643,1.621,19.513,-7.336,-3.778,19.124,-4.153,-5.678,10.267,1.403,-10.92,4.197,4.1,6.966,19.906,5.659,8.217,10.515,6.95,5.067,1.371,-3.616,-3.349,0.05,-6.243,-1.949,-12.929,-8.248,0.471,-22.527,3.616,3.349,-0.05,1.339,5.71,-12.955,-0.882,7.14,-22.703
-0.882,0.617,27.963,-1.584,1.613,19.519,-7.282,-3.78,19.13,-3.96,-5.691,10.326,1.077,-10.511,3.501,4.218,6.894,19.915,5.766,8.135,10.52,7.168,4.962,1.401,-3.594,-3.373,0.05,-6.266,-2.06,-12.929,-8.246,0.54,-22.485,3.594,3.373,-0.05,1.464,5.588,-13.006,-0.803,7.157,-22.722
-0.828,0.588,27.925,-1.585,1.609,19.519,-7.289,-3.77,19.034,-3.791,-5.646,10.291,0.703,-10.216,2.936,4.176,6.941,19.813,5.84,8.096,10.427,7.126,4.973,1.274,-3.6,-3.367,0.0,-6.301,-2.045,-12.972,-8.164,0.537,-22.556,3.6,3.367,0.0,1.386,5.656,-12.929,-0.845,7.168,-22.663
-0.732,0.668,28.055,-1.458,1.548,19.534,-7.193,-3.799,19.052,-3.422,-5.547,10.396,0.429,-9.73,2.468,4.178,7.013,19.829,5.83,8.167,10.441,7.215,5.021,1.31,-3.611,-3.355,0.0,-6.249,-1.837,-12.963,-7.944,0.622,-22.611,3.611,3.355,0.0,1.358,5.584,-12.933,-0.775,7.122,-22.684
-0.579,0.632,28.1,-1.309,1.508,19.548,-7.048,-3.835,19.066,-3.455,-5.491,10.317,0.001,-9.388,2.068,4.385,6.911,19.845,6.038,8.16,10.47,7.328,5.01,1.326,-3.616,-3.35,0.05,-5.923,-1.943,-12.989,-7.91,0.454,-22.597,3.616,3.35,-0.05,1.737,5.554,-13.047,-0.494,7.1,-22.775
-0.738,0.529,28.041,-1.361,1.569,19.539,-7.036,-3.85,19.149,-3.594,-5.499,10.338,-0.288,-9.073,1.883,4.366,6.937,19.835,5.914,8.189,10.442,7.297,5.131,1.281,-3.552,-3.418,0.05,-6.035,-1.919,-12.946,-8.022,0.605,-22.521,3.552,3.418,-0.05,1.653,5.542,-13.057,-0.515,7.134,-22.792
-0.478,0.61,28.191,-1.088,1.509,19.561,-6.769,-3.903,19.179,-3.442,-5.435,10.303,-0.209,-8.93,1.787,4.65,6.87,19.758,6.217,8.133,10.369,7.502,4.983,1.225,-3.61,-3.356,0.05,-5.912,-2.056,-13.001,-7.78,0.449,-22.605,3.61,3.356,-0.05,1.623,5.557,-13.031,-0.431,7.019,-22.811
-0.536,0.574,28.182,-1.187,1.443,19.56,-6.92,-3.913,19.174,-3.692,-5.452,10.263,-0.556,-8.959,1.716,4.495,6.86,19.853,6.061,8.123,10.464,7.339,5.088,1.28,-3.583,-3.385,0.0,-6.301,-1.881,-12.948,-7.897,0.607,-22.606,3.583,3.385,0.0,1.482,5.584,-12.964,-0.586,7.056,-22.739
-0.484,0.592,28.116,-1.26,1.447,19.555,-7.028,-3.873,19.172,-3.794,-5.394,10.26,-0.606,-9.021,1.782,4.457,6.827,19.846,6.028,8.078,10.457,7.334,5.017,1.285,-3.629,-3.335,0.049,-6.421,-1.809,-12.881,-7.992,0.606,-22.562,3.629,3.335,-0.049,1.583,5.456,-13.034,-0.716,7.035,-22.741
-0.467,0.605,28.193,-1.137,1.451,19.563,-6.87,-3.912,19.273,-3.775,-5.442,10.313,-0.544,-9.151,1.887,4.591,6.812,19.957,6.139,8.158,10.576,7.427,5.097,1.403,-3.606,-3.361,0.0,-6.044,-1.935,-13.013,-7.803,0.575,-22.636,3.606,3.361,0.0,1.634,5.433,-13.005,-0.538,7.005,-22.742
-0.318,0.617,28.169,-1.145,1.394,19.566,-6.895,-3.937,19.086,-3.707,-5.387,10.146,-0.464,-9.182,1.763,4.557,6.789,19.858,6.119,8.135,10.48,7.418,5.074,1.308,-3.647,-3.315,0.049,-6.106,-1.89,-12.96,-7.993,0.512,-22.587,3.647,3.315,-0.049,1.749,5.65,-13.02,-0.525,7.138,-22.748
-0.503,0.572,28.183,-1.204,1.404,19.562,-6.949,-3.94,19.177,-4.01,-5.496,10.169,-0.48,-9.369,1.94,4.538,6.75,19.955,6.108,8.109,10.58,7.288,5.184,1.347,-3.617,-3.349,0.0,-6.012,-1.849,-13.012,-8.023,0.467,-22.635,3.617,3.349,0.0,1.656,5.627,-12.972,-0.563,7.14,-22.708
-0.451,0.531,28.15,-1.199,1.394,19.563,-6.998,-3.885,19.088,-3.912,-5.34,10.112,-0.338,-9.337,1.961,4.556,6.732,19.857,6.131,8.091,10.483,7.412,5.17,1.263,-3.622,-3.343,0.05,-5.83,-1.827,-12.994,-8.062,0.478,-22.571,3.622,3.343,-0.05,1.639,5.638,-13.015,-0.604,7.162,-22.744
-0.669,0.477,28.23,-1.245,1.34,19.564,-7.08,-3.905,19.178,-3.886,-5.481,10.261,-0.245,-9.466,2.134,4.488,6.697,19.958,6.038,8.043,10.578,7.316,5.008,1.394,-3.608,-3.358,0.049,-5.835,-1.928,-13.001,-8.04,0.584,-22.532,3.608,3.358,-0.049,1.733,5.449,-13.065,-0.601,7.015,-22.766
-0.191,0.794,28.01,-1.418,1.4,19.548,-7.566,-3.477,19.19,-4.044,-5.12,10.409,0.036,-9.059,2.47,4.592,6.451,19.821,6.363,7.614,10.456,7.824,4.649,1.276,-3.788,-3.153,0.047,-15.756,-2.566,-5.761,-15.756,-0.042,-15.54,3.788,3.153,-0.047,1.525,5.365,-12.981,-0.909,6.915,-22.66
-0.693,0.533,28.142,-1.252,1.504,19.552,-7.046,-3.788,19.17,-3.74,-5.356,10.293,0.017,-9.44,2.268,4.547,6.794,19.849,6.024,8.059,10.446,7.421,5.091,1.258,-3.591,-3.376,0.0,-6.259,-2.064,-12.98,-8.153,0.465,-22.573,3.591,3.376,0.0,1.596,5.578,-12.98,-0.62,7.172,-22.704
-0.705,0.565,28.132,-1.418,1.396,19.548,-7.219,-3.886,19.16,-3.948,-5.547,10.287,-0.018,-9.592,2.325,4.382,6.686,19.84,5.958,7.949,10.453,7.254,4.887,1.28,-3.62,-3.346,0.0,-5.894,-2.005,-13.051,-8.174,0.454,-22.578,3.62,3.346,0.0,1.372,5.445,-12.956,-0.751,7.031,-22.702
-0.81,0.5,28.13,-1.423,1.414,19.547,-7.248,-3.842,19.16,-3.905,-5.498,10.313,-0.005,-9.548,2.34,4.353,6.73,19.84,5.902,7.887,10.434,7.187,4.825,1.261,-3.604,-3.362,0.05,-6.022,-2.055,-12.979,-8.057,0.394,-22.564,3.604,3.362,-0.05,1.526,5.544,-13.02,-0.611,7.094,-22.769
-0.761,0.683,28.204,-1.306,1.511,19.548,-7.137,-3.739,19.162,-3.787,-5.394,10.316,0.102,-9.528,2.381,4.426,6.875,19.843,6.006,8.053,10.446,7.268,4.956,1.28,-3.608,-3.359,0.0,-5.96,-2.14,-13.049,-8.091,0.502,-22.562,3.608,3.359,0.0,1.433,5.631,-12.939,-0.691,7.229,-22.683
-0.943,0.65,28.164,-1.467,1.506,19.536,-7.254,-3.791,19.147,-3.9,-5.446,10.304,-0.006,-9.58,2.37,4.371,6.753,19.832,5.843,8.019,10.428,7.226,4.872,1.297,-3.585,-3.383,0.05,-6.39,-2.053,-12.899,-8.22,0.506,-22.496,3.585,3.383,-0.05,1.188,5.758,-12.931,-0.794,7.291,-22.715
-0.857,0.795,28.191,-1.415,1.56,19.536,-7.206,-3.733,19.147,-4.008,-5.309,10.231,-0.001,-9.539,2.406,4.428,6.803,19.831,5.89,7.962,10.412,7.287,4.788,1.293,-3.64,-3.324,0.05,-5.868,-1.785,-12.987,-8.275,0.487,-22.529,3.64,3.324,-0.05,1.686,5.712,-13.003,-0.623,7.316,-22.704
-1.002,0.721,28.174,-1.532,1.514,19.531,-7.323,-3.779,19.142,-4.156,-5.339,10.212,-0.087,-9.635,2.455,4.312,6.756,19.826,5.787,7.925,10.41,7.075,4.774,1.267,-3.613,-3.353,0.05,-6.169,-2.038,-12.952,-8.337,0.428,-22.503,3.613,3.353,-0.05,1.299,5.528,-12.981,-0.913,7.123,-22.706
-0.995,0.713,28.179,-1.524,1.506,19.532,-7.315,-3.787,19.143,-4.148,-5.347,10.213,-0.111,-9.61,2.421,4.266,6.807,19.824,5.839,7.879,10.413,7.116,4.755,1.259,-3.613,-3.353,0.05,-6.315,-2.02,-12.921,-8.36,0.428,-22.503,3.613,3.353,-0.05,1.263,5.562,-12.969,-0.917,7.134,-22.705
-0.86,0.805,28.221,-1.367,1.568,19.539,-7.161,-3.728,19.247,-4.032,-5.38,10.32,-0.032,-9.611,2.492,4.422,6.87,19.831,5.995,7.942,10.42,7.282,4.791,1.276,-3.664,-3.296,0.05,-5.915,-2.076,-13.018,-8.159,0.461,-22.533,3.664,3.296,-0.05,1.467,5.586,-12.982,-0.745,7.181,-22.706
-0.857,0.724,28.176,-1.374,1.569,19.538,-7.178,-3.711,19.15,-4.075,-5.402,10.222,-0.021,-9.661,2.437,4.481,6.797,19.832,6.06,7.964,10.433,7.252,4.722,1.309,-3.673,-3.287,0.05,-6.261,-2.072,-12.956,-8.141,0.432,-22.557,3.673,3.287,-0.05,1.33,5.479,-12.973,-0.795,7.065,-22.718
-1.056,0.813,28.262,-1.43,1.572,19.534,-7.281,-3.662,19.245,-4.112,-5.329,10.336,-0.119,-9.642,2.548,4.372,6.86,19.831,5.852,8.029,10.417,7.144,4.878,1.274,-3.645,-3.318,0.0,-6.101,-2.001,-13.021,-8.316,0.51,-22.549,3.645,3.318,0.0,1.193,5.506,-12.904,-0.925,7.173,-22.637
-0.966,0.887,28.238,-1.471,1.568,19.531,-7.355,-3.628,19.239,-4.04,-5.268,10.378,-0.277,-9.588,2.481,4.311,6.882,19.727,5.781,8.052,10.31,7.064,4.901,1.166,-3.658,-3.303,0.05,-6.134,-1.966,-12.965,-8.268,0.577,-22.504,3.658,3.303,-0.05,1.452,5.611,-12.977,-0.783,7.169,-22.702
-0.987,0.828,28.23,-1.436,1.584,19.533,-7.23,-3.716,19.338,-4.203,-5.374,10.377,-0.254,-9.656,2.551,4.355,6.889,19.728,5.911,8.046,10.323,7.121,4.836,1.19,-3.639,-3.325,0.05,-6.243,-2.146,-12.955,-8.091,0.436,-22.543,3.639,3.325,-0.05,1.439,5.503,-13.001,-0.626,7.135,-22.752
-0.922,0.895,28.173,-1.428,1.676,19.526,-7.234,-3.608,19.234,-4.132,-5.298,10.306,-0.296,-9.447,2.352,4.429,6.907,19.722,5.909,8.172,10.319,7.202,5.022,1.177,-3.647,-3.315,0.05,-6.086,-1.9,-12.964,-8.203,0.514,-22.539,3.647,3.315,-0.05,1.46,5.697,-12.967,-0.745,7.28,-22.695
